\relax 
\@writefile{toc}{\contentsline {chapter}{\numberline {B}Some tips about writing}{85}}
\@writefile{lof}{\addvspace {10\p@ }}
\@writefile{lot}{\addvspace {10\p@ }}
\newlabel{chap:chapter2}{{B}{85}}
\@writefile{toc}{\contentsline {section}{\numberline {B.1}Sections}{85}}
\newlabel{sect:section2}{{B.1}{85}}
\@writefile{toc}{\contentsline {subsection}{\numberline {B.1.1}Section~\ref  {sect:section2} only subsection}{85}}
\newlabel{sect:subsection2}{{B.1.1}{85}}
\@writefile{toc}{\contentsline {section}{\numberline {B.2}Correct number of subections}{85}}
\newlabel{sect:section2-correct}{{B.2}{85}}
\@writefile{toc}{\contentsline {subsection}{\numberline {B.2.1}sub 1}{85}}
\@writefile{toc}{\contentsline {subsection}{\numberline {B.2.2}sub 2}{85}}
\@writefile{toc}{\contentsline {subsubsection}{subsub 2.1}{85}}
\@writefile{toc}{\contentsline {subsubsection}{subsub 2.2}{85}}
\@writefile{toc}{\contentsline {subsection}{\numberline {B.2.3}sub 2}{85}}
\citation{alrabiah-1998}
\citation{alrabiah-2001}
\@writefile{toc}{\contentsline {subsection}{\numberline {B.2.4}Figures}{86}}
\@writefile{toc}{\contentsline {subsubsection}{Using single figures}{86}}
\@writefile{lof}{\contentsline {figure}{\numberline {B.1}{\ignorespaces Caption for this figure}}{86}}
\newlabel{fig:secondfigure}{{B.1}{86}}
\@writefile{toc}{\contentsline {subsubsection}{Using sub-figures}{86}}
\newlabel{fig:firstfigure-a}{{B.2(a)}{86}}
\newlabel{sub@fig:firstfigure-a}{{(a)}{86}}
\newlabel{fig:firstfigure-b}{{B.2(b)}{86}}
\newlabel{sub@fig:firstfigure-b}{{(b)}{86}}
\@writefile{lof}{\contentsline {figure}{\numberline {B.2}{\ignorespaces Caption for this figure}}{86}}
\@writefile{lof}{\contentsline {subfigure}{\numberline{(a)}{\ignorespaces {Subcaption for a}}}{86}}
\@writefile{lof}{\contentsline {subfigure}{\numberline{(b)}{\ignorespaces {Subcaption for b}}}{86}}
\newlabel{fig:firstfigure}{{B.2}{86}}
\@writefile{toc}{\contentsline {section}{\numberline {B.3}My section about references}{86}}
\newlabel{sect:ref}{{B.3}{86}}
\@writefile{toc}{\contentsline {section}{\numberline {B.4}My section about writing in general}{86}}
\newlabel{sect:rwriting}{{B.4}{86}}
\@writefile{toc}{\contentsline {section}{\numberline {B.5}Summary}{87}}
\newlabel{sect:summary}{{B.5}{87}}
\@setckpt{appC}{
\setcounter{page}{88}
\setcounter{equation}{0}
\setcounter{enumi}{0}
\setcounter{enumii}{0}
\setcounter{enumiii}{0}
\setcounter{enumiv}{0}
\setcounter{footnote}{0}
\setcounter{mpfootnote}{0}
\setcounter{part}{0}
\setcounter{chapter}{2}
\setcounter{section}{5}
\setcounter{subsection}{0}
\setcounter{subsubsection}{0}
\setcounter{paragraph}{0}
\setcounter{subparagraph}{0}
\setcounter{figure}{2}
\setcounter{table}{0}
\setcounter{LT@tables}{0}
\setcounter{LT@chunks}{0}
\setcounter{parentequation}{0}
\setcounter{subfigure}{0}
\setcounter{lofdepth}{1}
\setcounter{subtable}{0}
\setcounter{lotdepth}{1}
\setcounter{lstnumber}{2}
\setcounter{IfiF@cur@year}{2017}
\setcounter{IfiF@cur@month}{2}
\setcounter{lstlisting}{0}
}
