\relax 
\providecommand\hyper@newdestlabel[2]{}
\@writefile{toc}{\contentsline {chapter}{\numberline {2}Background and Related work}{5}{chapter.2}}
\@writefile{lof}{\addvspace {10\p@ }}
\@writefile{lot}{\addvspace {10\p@ }}
\newlabel{chap:background}{{2}{5}{Background and Related work}{chapter.2}{}}
\@writefile{toc}{\contentsline {section}{\numberline {2.1}Virtualization}{5}{section.2.1}}
\newlabel{sect:virtualization}{{2.1}{5}{Virtualization}{section.2.1}{}}
\@writefile{toc}{\contentsline {subsection}{\numberline {2.1.1}Virtualization components}{5}{subsection.2.1.1}}
\citation{KVM-2007}
\citation{STAR-WP}
\citation{vmware_figs}
\@writefile{toc}{\contentsline {subsection}{\numberline {2.1.2}Virtualization techniques}{6}{subsection.2.1.2}}
\newlabel{virttech}{{2.1.2}{6}{Virtualization techniques}{subsection.2.1.2}{}}
\@writefile{toc}{\contentsline {subsubsection}{Full virtualization}{6}{section*.6}}
\newlabel{subsect:FV}{{2.1.2}{6}{Full virtualization}{section*.6}{}}
\citation{TAN-2014}
\@writefile{lof}{\contentsline {figure}{\numberline {2.1}{\ignorespaces Full virtualization with binary translation\cite  {vmware_figs}}}{7}{figure.2.1}}
\newlabel{figure:fullvirt}{{2.1}{7}{Full virtualization with binary translation\cite {vmware_figs}}{figure.2.1}{}}
\citation{KVM-2007}
\citation{vmware_figs}
\@writefile{toc}{\contentsline {subsubsection}{Hardware-assisted virtualization}{8}{section*.7}}
\newlabel{subsect:HVM}{{2.1.2}{8}{Hardware-assisted virtualization}{section*.7}{}}
\@writefile{lof}{\contentsline {figure}{\numberline {2.2}{\ignorespaces Overview of hardware-assisted virtualization\cite  {vmware_figs}}}{8}{figure.2.2}}
\newlabel{figure:HVM}{{2.2}{8}{Overview of hardware-assisted virtualization\cite {vmware_figs}}{figure.2.2}{}}
\citation{DEN}
\citation{Xen-2003}
\citation{Xen-2003}
\citation{vmware_figs}
\@writefile{toc}{\contentsline {subsubsection}{Paravirtualization}{9}{section*.8}}
\@writefile{lof}{\contentsline {figure}{\numberline {2.3}{\ignorespaces Overview of paravirtualization\cite  {vmware_figs}}}{9}{figure.2.3}}
\newlabel{figure:paravirt}{{2.3}{9}{Overview of paravirtualization\cite {vmware_figs}}{figure.2.3}{}}
\@writefile{toc}{\contentsline {subsection}{\numberline {2.1.3}I/O virtualization}{9}{subsection.2.1.3}}
\newlabel{I/O Virt}{{2.1.3}{9}{I/O virtualization}{subsection.2.1.3}{}}
\citation{virtio-2010}
\citation{virtio-2010}
\@writefile{toc}{\contentsline {section}{\numberline {2.2}Current virtualization solutions}{10}{section.2.2}}
\newlabel{sect:CVS }{{2.2}{10}{Current virtualization solutions}{section.2.2}{}}
\citation{Xen-2003}
\citation{Xen-2003}
\@writefile{toc}{\contentsline {subsection}{\numberline {2.2.1}Xen}{11}{subsection.2.2.1}}
\newlabel{subsect:xen}{{2.2.1}{11}{Xen}{subsection.2.2.1}{}}
\citation{Xen-2003}
\citation{Qemu-2005}
\citation{KVM-2007}
\citation{KVM-2007}
\citation{KVM-2007}
\@writefile{toc}{\contentsline {subsection}{\numberline {2.2.2}KVM and Qemu}{12}{subsection.2.2.2}}
\newlabel{subsect:KVM}{{2.2.2}{12}{KVM and Qemu}{subsection.2.2.2}{}}
\citation{Qemu-2005}
\citation{KVM-2007}
\citation{KVM-2007}
\@writefile{toc}{\contentsline {section}{\numberline {2.3}Linux}{13}{section.2.3}}
\citation{TAN-2014}
\@writefile{toc}{\contentsline {subsection}{\numberline {2.3.1}Memory management}{14}{subsection.2.3.1}}
\newlabel{LMM}{{2.3.1}{14}{Memory management}{subsection.2.3.1}{}}
\@writefile{toc}{\contentsline {subsubsection}{Paging}{14}{section*.9}}
\citation{INTEL_MAN}
\@writefile{toc}{\contentsline {subsubsection}{Page Tables and the MMU}{15}{section*.10}}
\@writefile{lof}{\contentsline {figure}{\numberline {2.4}{\ignorespaces Translating a virtual address on 32-bit architectures using 4KB paging\cite  {INTEL_MAN}}}{16}{figure.2.4}}
\newlabel{figure:intel_page_translation}{{2.4}{16}{Translating a virtual address on 32-bit architectures using 4KB paging\cite {INTEL_MAN}}{figure.2.4}{}}
\@writefile{toc}{\contentsline {subsection}{\numberline {2.3.2}Device drivers in Linux}{16}{subsection.2.3.2}}
\newlabel{LDD}{{2.3.2}{16}{Device drivers in Linux}{subsection.2.3.2}{}}
\newlabel{code:struct_file_ops}{{2.1}{17}{A cut down version of the file operations data structure}{lstlisting.2.1}{}}
\@writefile{lol}{\contentsline {lstlisting}{\numberline {2.1}A cut down version of the file operations data structure}{17}{lstlisting.2.1}}
\@writefile{toc}{\contentsline {subsection}{\numberline {2.3.3}Communication with I/O devices}{17}{subsection.2.3.3}}
\newlabel{LDD_comm}{{2.3.3}{17}{Communication with I/O devices}{subsection.2.3.3}{}}
\@writefile{toc}{\contentsline {subsection}{\numberline {2.3.4}Caching}{19}{subsection.2.3.4}}
\newlabel{caching}{{2.3.4}{19}{Caching}{subsection.2.3.4}{}}
\citation{pci_wiki}
\@writefile{toc}{\contentsline {section}{\numberline {2.4}PCI Express}{20}{section.2.4}}
\newlabel{PCI}{{2.4}{20}{PCI Express}{section.2.4}{}}
\@writefile{toc}{\contentsline {subsection}{\numberline {2.4.1}PCI configuration space}{20}{subsection.2.4.1}}
\@writefile{lof}{\contentsline {figure}{\numberline {2.5}{\ignorespaces PCI configuration space\cite  {pci_wiki}}}{21}{figure.2.5}}
\newlabel{figure:wiki_pci_config_space}{{2.5}{21}{PCI configuration space\cite {pci_wiki}}{figure.2.5}{}}
\@writefile{toc}{\contentsline {subsection}{\numberline {2.4.2}Non-transparent bridge}{21}{subsection.2.4.2}}
\citation{SISCI}
\@writefile{toc}{\contentsline {section}{\numberline {2.5}Software Infrastructure for Shared-Memory Cluster Interconnect (SISCI)}{22}{section.2.5}}
\newlabel{SISCI}{{2.5}{22}{Software Infrastructure for Shared-Memory Cluster Interconnect (SISCI)}{section.2.5}{}}
\@writefile{toc}{\contentsline {subsection}{\numberline {2.5.1}API functionality}{22}{subsection.2.5.1}}
\newlabel{TheAPI}{{2.5.1}{22}{API functionality}{subsection.2.5.1}{}}
\@writefile{toc}{\contentsline {subsubsection}{Memory segments}{23}{section*.11}}
\newlabel{code:SCICreateSegment}{{2.5.1}{23}{}{lstlisting.2.-1}{}}
\newlabel{code:SCIConnectSegment}{{2.5.1}{23}{}{lstlisting.2.-2}{}}
\newlabel{code:SCIMapRemoteSegment}{{2.5.1}{24}{}{lstlisting.2.-3}{}}
\newlabel{code:SCIStartDmaTransfer}{{2.5.1}{24}{}{lstlisting.2.-4}{}}
\@writefile{toc}{\contentsline {subsubsection}{Interrupts}{24}{section*.12}}
\newlabel{code:SCICreateInterrupt}{{2.5.1}{24}{}{lstlisting.2.-5}{}}
\newlabel{code:SCIConnectInterrupt}{{2.5.1}{25}{}{lstlisting.2.-6}{}}
\newlabel{code:SCIWaitForInterrupt}{{2.5.1}{25}{}{lstlisting.2.-7}{}}
\@writefile{toc}{\contentsline {subsubsection}{Error checking}{25}{section*.13}}
\@writefile{toc}{\contentsline {subsection}{\numberline {2.5.2}Hardware}{25}{subsection.2.5.2}}
\citation{XENSOCKET}
\citation{XWAY}
\@writefile{toc}{\contentsline {section}{\numberline {2.6}Inter-VM communication}{26}{section.2.6}}
\newlabel{sect:IVMC}{{2.6}{26}{Inter-VM communication}{section.2.6}{}}
\citation{VMPI}
\citation{IVShmem}
\citation{VMPI}
\citation{VMPI}
\citation{SIVSHM}
\citation{MemPipe}
\citation{host-guest}
\citation{IVShmem}
\@writefile{toc}{\contentsline {section}{\numberline {2.7}Summary}{28}{section.2.7}}
\@setckpt{background}{
\setcounter{page}{29}
\setcounter{equation}{0}
\setcounter{enumi}{0}
\setcounter{enumii}{0}
\setcounter{enumiii}{0}
\setcounter{enumiv}{0}
\setcounter{footnote}{6}
\setcounter{mpfootnote}{0}
\setcounter{part}{0}
\setcounter{chapter}{2}
\setcounter{section}{7}
\setcounter{subsection}{0}
\setcounter{subsubsection}{0}
\setcounter{paragraph}{0}
\setcounter{subparagraph}{0}
\setcounter{figure}{5}
\setcounter{table}{0}
\setcounter{LT@tables}{0}
\setcounter{LT@chunks}{0}
\setcounter{parentequation}{0}
\setcounter{subfigure}{0}
\setcounter{lofdepth}{1}
\setcounter{subtable}{0}
\setcounter{lotdepth}{1}
\setcounter{Item}{0}
\setcounter{Hfootnote}{8}
\setcounter{bookmark@seq@number}{28}
\setcounter{lstnumber}{2}
\setcounter{IfiF@cur@year}{2017}
\setcounter{IfiF@cur@month}{2}
\setcounter{section@level}{1}
\setcounter{lstlisting}{1}
}
