<?xml version="1.0" encoding="UTF-8"?>
<svg xmlns="http://www.w3.org/2000/svg" xmlns:xlink="http://www.w3.org/1999/xlink" width="695pt" height="278pt" viewBox="0 0 695 278" version="1.1">
<defs>
<g>
<symbol overflow="visible" id="glyph0-0">
<path style="stroke:none;" d="M 0.40625 1.421875 L 0.40625 -5.640625 L 4.40625 -5.640625 L 4.40625 1.421875 Z M 0.84375 0.96875 L 3.953125 0.96875 L 3.953125 -5.1875 L 0.84375 -5.1875 Z M 0.84375 0.96875 "/>
</symbol>
<symbol overflow="visible" id="glyph0-1">
<path style="stroke:none;" d="M 1 -0.671875 L 2.28125 -0.671875 L 2.28125 -5.109375 L 0.875 -4.828125 L 0.875 -5.546875 L 2.28125 -5.828125 L 3.0625 -5.828125 L 3.0625 -0.671875 L 4.359375 -0.671875 L 4.359375 0 L 1 0 Z M 1 -0.671875 "/>
</symbol>
<symbol overflow="visible" id="glyph0-2">
<path style="stroke:none;" d="M 2.546875 -5.3125 C 2.140625 -5.3125 1.832031 -5.109375 1.625 -4.703125 C 1.425781 -4.304688 1.328125 -3.707031 1.328125 -2.90625 C 1.328125 -2.113281 1.425781 -1.515625 1.625 -1.109375 C 1.832031 -0.710938 2.140625 -0.515625 2.546875 -0.515625 C 2.953125 -0.515625 3.253906 -0.710938 3.453125 -1.109375 C 3.660156 -1.515625 3.765625 -2.113281 3.765625 -2.90625 C 3.765625 -3.707031 3.660156 -4.304688 3.453125 -4.703125 C 3.253906 -5.109375 2.953125 -5.3125 2.546875 -5.3125 Z M 2.546875 -5.9375 C 3.203125 -5.9375 3.703125 -5.675781 4.046875 -5.15625 C 4.390625 -4.644531 4.5625 -3.894531 4.5625 -2.90625 C 4.5625 -1.925781 4.390625 -1.175781 4.046875 -0.65625 C 3.703125 -0.144531 3.203125 0.109375 2.546875 0.109375 C 1.890625 0.109375 1.390625 -0.144531 1.046875 -0.65625 C 0.703125 -1.175781 0.53125 -1.925781 0.53125 -2.90625 C 0.53125 -3.894531 0.703125 -4.644531 1.046875 -5.15625 C 1.390625 -5.675781 1.890625 -5.9375 2.546875 -5.9375 Z M 2.546875 -5.9375 "/>
</symbol>
<symbol overflow="visible" id="glyph0-3">
<path style="stroke:none;" d=""/>
</symbol>
<symbol overflow="visible" id="glyph0-4">
<path style="stroke:none;" d="M 1.53125 -0.671875 L 4.296875 -0.671875 L 4.296875 0 L 0.59375 0 L 0.59375 -0.671875 C 0.882812 -0.972656 1.289062 -1.382812 1.8125 -1.90625 C 2.332031 -2.4375 2.65625 -2.773438 2.78125 -2.921875 C 3.039062 -3.203125 3.21875 -3.441406 3.3125 -3.640625 C 3.414062 -3.835938 3.46875 -4.03125 3.46875 -4.21875 C 3.46875 -4.53125 3.359375 -4.785156 3.140625 -4.984375 C 2.921875 -5.179688 2.640625 -5.28125 2.296875 -5.28125 C 2.046875 -5.28125 1.78125 -5.234375 1.5 -5.140625 C 1.226562 -5.054688 0.9375 -4.925781 0.625 -4.75 L 0.625 -5.546875 C 0.945312 -5.679688 1.242188 -5.78125 1.515625 -5.84375 C 1.796875 -5.90625 2.050781 -5.9375 2.28125 -5.9375 C 2.882812 -5.9375 3.363281 -5.785156 3.71875 -5.484375 C 4.082031 -5.179688 4.265625 -4.78125 4.265625 -4.28125 C 4.265625 -4.039062 4.21875 -3.8125 4.125 -3.59375 C 4.03125 -3.375 3.867188 -3.117188 3.640625 -2.828125 C 3.566406 -2.753906 3.351562 -2.535156 3 -2.171875 C 2.65625 -1.816406 2.164062 -1.316406 1.53125 -0.671875 Z M 1.53125 -0.671875 "/>
</symbol>
<symbol overflow="visible" id="glyph0-5">
<path style="stroke:none;" d="M 3.25 -3.140625 C 3.625 -3.066406 3.914062 -2.898438 4.125 -2.640625 C 4.34375 -2.390625 4.453125 -2.078125 4.453125 -1.703125 C 4.453125 -1.117188 4.253906 -0.671875 3.859375 -0.359375 C 3.460938 -0.046875 2.898438 0.109375 2.171875 0.109375 C 1.921875 0.109375 1.664062 0.0820312 1.40625 0.03125 C 1.15625 -0.0078125 0.890625 -0.078125 0.609375 -0.171875 L 0.609375 -0.9375 C 0.828125 -0.8125 1.066406 -0.710938 1.328125 -0.640625 C 1.585938 -0.578125 1.859375 -0.546875 2.140625 -0.546875 C 2.640625 -0.546875 3.019531 -0.644531 3.28125 -0.84375 C 3.539062 -1.039062 3.671875 -1.328125 3.671875 -1.703125 C 3.671875 -2.046875 3.546875 -2.3125 3.296875 -2.5 C 3.054688 -2.695312 2.722656 -2.796875 2.296875 -2.796875 L 1.625 -2.796875 L 1.625 -3.4375 L 2.328125 -3.4375 C 2.710938 -3.4375 3.007812 -3.515625 3.21875 -3.671875 C 3.425781 -3.828125 3.53125 -4.050781 3.53125 -4.34375 C 3.53125 -4.644531 3.421875 -4.875 3.203125 -5.03125 C 2.992188 -5.195312 2.691406 -5.28125 2.296875 -5.28125 C 2.078125 -5.28125 1.84375 -5.253906 1.59375 -5.203125 C 1.351562 -5.160156 1.082031 -5.085938 0.78125 -4.984375 L 0.78125 -5.6875 C 1.082031 -5.769531 1.363281 -5.832031 1.625 -5.875 C 1.882812 -5.914062 2.132812 -5.9375 2.375 -5.9375 C 2.96875 -5.9375 3.4375 -5.800781 3.78125 -5.53125 C 4.132812 -5.257812 4.3125 -4.890625 4.3125 -4.421875 C 4.3125 -4.097656 4.21875 -3.828125 4.03125 -3.609375 C 3.851562 -3.390625 3.59375 -3.234375 3.25 -3.140625 Z M 3.25 -3.140625 "/>
</symbol>
<symbol overflow="visible" id="glyph0-6">
<path style="stroke:none;" d="M 2.296875 0 L 0.0625 -5.828125 L 0.890625 -5.828125 L 2.734375 -0.921875 L 4.59375 -5.828125 L 5.40625 -5.828125 L 3.1875 0 Z M 2.296875 0 "/>
</symbol>
<symbol overflow="visible" id="glyph0-7">
<path style="stroke:none;" d="M 0.75 -4.375 L 1.46875 -4.375 L 1.46875 0 L 0.75 0 Z M 0.75 -6.078125 L 1.46875 -6.078125 L 1.46875 -5.171875 L 0.75 -5.171875 Z M 0.75 -6.078125 "/>
</symbol>
<symbol overflow="visible" id="glyph0-8">
<path style="stroke:none;" d="M 3.296875 -3.703125 C 3.210938 -3.753906 3.125 -3.789062 3.03125 -3.8125 C 2.9375 -3.832031 2.832031 -3.84375 2.71875 -3.84375 C 2.3125 -3.84375 2 -3.707031 1.78125 -3.4375 C 1.5625 -3.175781 1.453125 -2.800781 1.453125 -2.3125 L 1.453125 0 L 0.734375 0 L 0.734375 -4.375 L 1.453125 -4.375 L 1.453125 -3.703125 C 1.597656 -3.960938 1.789062 -4.15625 2.03125 -4.28125 C 2.28125 -4.414062 2.578125 -4.484375 2.921875 -4.484375 C 2.972656 -4.484375 3.023438 -4.476562 3.078125 -4.46875 C 3.140625 -4.46875 3.207031 -4.457031 3.28125 -4.4375 Z M 3.296875 -3.703125 "/>
</symbol>
<symbol overflow="visible" id="glyph0-9">
<path style="stroke:none;" d="M 1.46875 -5.625 L 1.46875 -4.375 L 2.953125 -4.375 L 2.953125 -3.8125 L 1.46875 -3.8125 L 1.46875 -1.4375 C 1.46875 -1.082031 1.515625 -0.851562 1.609375 -0.75 C 1.710938 -0.65625 1.910156 -0.609375 2.203125 -0.609375 L 2.953125 -0.609375 L 2.953125 0 L 2.203125 0 C 1.648438 0 1.269531 -0.101562 1.0625 -0.3125 C 0.851562 -0.519531 0.75 -0.894531 0.75 -1.4375 L 0.75 -3.8125 L 0.21875 -3.8125 L 0.21875 -4.375 L 0.75 -4.375 L 0.75 -5.625 Z M 1.46875 -5.625 "/>
</symbol>
<symbol overflow="visible" id="glyph0-10">
<path style="stroke:none;" d="M 0.6875 -1.734375 L 0.6875 -4.375 L 1.40625 -4.375 L 1.40625 -1.75 C 1.40625 -1.34375 1.484375 -1.035156 1.640625 -0.828125 C 1.804688 -0.617188 2.050781 -0.515625 2.375 -0.515625 C 2.757812 -0.515625 3.0625 -0.632812 3.28125 -0.875 C 3.507812 -1.125 3.625 -1.460938 3.625 -1.890625 L 3.625 -4.375 L 4.34375 -4.375 L 4.34375 0 L 3.625 0 L 3.625 -0.671875 C 3.445312 -0.410156 3.242188 -0.210938 3.015625 -0.078125 C 2.785156 0.046875 2.519531 0.109375 2.21875 0.109375 C 1.71875 0.109375 1.335938 -0.046875 1.078125 -0.359375 C 0.816406 -0.671875 0.6875 -1.128906 0.6875 -1.734375 Z M 2.484375 -4.484375 Z M 2.484375 -4.484375 "/>
</symbol>
<symbol overflow="visible" id="glyph0-11">
<path style="stroke:none;" d="M 2.75 -2.203125 C 2.164062 -2.203125 1.757812 -2.132812 1.53125 -2 C 1.3125 -1.863281 1.203125 -1.640625 1.203125 -1.328125 C 1.203125 -1.066406 1.285156 -0.859375 1.453125 -0.703125 C 1.617188 -0.554688 1.847656 -0.484375 2.140625 -0.484375 C 2.535156 -0.484375 2.851562 -0.625 3.09375 -0.90625 C 3.332031 -1.195312 3.453125 -1.578125 3.453125 -2.046875 L 3.453125 -2.203125 Z M 4.171875 -2.5 L 4.171875 0 L 3.453125 0 L 3.453125 -0.671875 C 3.296875 -0.398438 3.09375 -0.203125 2.84375 -0.078125 C 2.601562 0.046875 2.304688 0.109375 1.953125 0.109375 C 1.503906 0.109375 1.144531 -0.015625 0.875 -0.265625 C 0.613281 -0.515625 0.484375 -0.851562 0.484375 -1.28125 C 0.484375 -1.769531 0.644531 -2.140625 0.96875 -2.390625 C 1.300781 -2.640625 1.796875 -2.765625 2.453125 -2.765625 L 3.453125 -2.765625 L 3.453125 -2.828125 C 3.453125 -3.160156 3.34375 -3.414062 3.125 -3.59375 C 2.914062 -3.78125 2.613281 -3.875 2.21875 -3.875 C 1.96875 -3.875 1.722656 -3.84375 1.484375 -3.78125 C 1.242188 -3.71875 1.015625 -3.628906 0.796875 -3.515625 L 0.796875 -4.171875 C 1.066406 -4.273438 1.320312 -4.351562 1.5625 -4.40625 C 1.8125 -4.457031 2.054688 -4.484375 2.296875 -4.484375 C 2.921875 -4.484375 3.390625 -4.316406 3.703125 -3.984375 C 4.015625 -3.660156 4.171875 -3.164062 4.171875 -2.5 Z M 4.171875 -2.5 "/>
</symbol>
<symbol overflow="visible" id="glyph0-12">
<path style="stroke:none;" d="M 0.75 -6.078125 L 1.46875 -6.078125 L 1.46875 0 L 0.75 0 Z M 0.75 -6.078125 "/>
</symbol>
<symbol overflow="visible" id="glyph0-13">
<path style="stroke:none;" d="M 0.4375 -4.375 L 3.859375 -4.375 L 3.859375 -3.71875 L 1.15625 -0.578125 L 3.859375 -0.578125 L 3.859375 0 L 0.34375 0 L 0.34375 -0.65625 L 3.046875 -3.796875 L 0.4375 -3.796875 Z M 0.4375 -4.375 "/>
</symbol>
<symbol overflow="visible" id="glyph0-14">
<path style="stroke:none;" d="M 4.5 -2.375 L 4.5 -2.015625 L 1.1875 -2.015625 C 1.21875 -1.523438 1.367188 -1.148438 1.640625 -0.890625 C 1.910156 -0.628906 2.28125 -0.5 2.75 -0.5 C 3.03125 -0.5 3.300781 -0.53125 3.5625 -0.59375 C 3.820312 -0.664062 4.078125 -0.769531 4.328125 -0.90625 L 4.328125 -0.21875 C 4.066406 -0.113281 3.800781 -0.0351562 3.53125 0.015625 C 3.257812 0.078125 2.988281 0.109375 2.71875 0.109375 C 2.019531 0.109375 1.460938 -0.09375 1.046875 -0.5 C 0.640625 -0.90625 0.4375 -1.453125 0.4375 -2.140625 C 0.4375 -2.859375 0.628906 -3.425781 1.015625 -3.84375 C 1.410156 -4.269531 1.9375 -4.484375 2.59375 -4.484375 C 3.175781 -4.484375 3.640625 -4.289062 3.984375 -3.90625 C 4.328125 -3.53125 4.5 -3.019531 4.5 -2.375 Z M 3.78125 -2.578125 C 3.769531 -2.972656 3.65625 -3.285156 3.4375 -3.515625 C 3.226562 -3.753906 2.945312 -3.875 2.59375 -3.875 C 2.195312 -3.875 1.875 -3.757812 1.625 -3.53125 C 1.382812 -3.300781 1.25 -2.984375 1.21875 -2.578125 Z M 3.78125 -2.578125 "/>
</symbol>
<symbol overflow="visible" id="glyph0-15">
<path style="stroke:none;" d="M 3.640625 -3.71875 L 3.640625 -6.078125 L 4.359375 -6.078125 L 4.359375 0 L 3.640625 0 L 3.640625 -0.65625 C 3.484375 -0.394531 3.289062 -0.203125 3.0625 -0.078125 C 2.832031 0.046875 2.554688 0.109375 2.234375 0.109375 C 1.703125 0.109375 1.269531 -0.0976562 0.9375 -0.515625 C 0.601562 -0.941406 0.4375 -1.5 0.4375 -2.1875 C 0.4375 -2.875 0.601562 -3.425781 0.9375 -3.84375 C 1.269531 -4.269531 1.703125 -4.484375 2.234375 -4.484375 C 2.554688 -4.484375 2.832031 -4.421875 3.0625 -4.296875 C 3.289062 -4.171875 3.484375 -3.976562 3.640625 -3.71875 Z M 1.1875 -2.1875 C 1.1875 -1.65625 1.296875 -1.238281 1.515625 -0.9375 C 1.734375 -0.632812 2.03125 -0.484375 2.40625 -0.484375 C 2.789062 -0.484375 3.09375 -0.632812 3.3125 -0.9375 C 3.53125 -1.238281 3.640625 -1.65625 3.640625 -2.1875 C 3.640625 -2.71875 3.53125 -3.128906 3.3125 -3.421875 C 3.09375 -3.722656 2.789062 -3.875 2.40625 -3.875 C 2.03125 -3.875 1.734375 -3.722656 1.515625 -3.421875 C 1.296875 -3.128906 1.1875 -2.71875 1.1875 -2.1875 Z M 1.1875 -2.1875 "/>
</symbol>
<symbol overflow="visible" id="glyph0-16">
<path style="stroke:none;" d="M 2.484375 -6.078125 C 2.128906 -5.472656 1.867188 -4.878906 1.703125 -4.296875 C 1.535156 -3.710938 1.453125 -3.117188 1.453125 -2.515625 C 1.453125 -1.910156 1.535156 -1.3125 1.703125 -0.71875 C 1.878906 -0.132812 2.140625 0.457031 2.484375 1.0625 L 1.859375 1.0625 C 1.460938 0.445312 1.164062 -0.15625 0.96875 -0.75 C 0.78125 -1.34375 0.6875 -1.929688 0.6875 -2.515625 C 0.6875 -3.097656 0.78125 -3.679688 0.96875 -4.265625 C 1.164062 -4.859375 1.460938 -5.460938 1.859375 -6.078125 Z M 2.484375 -6.078125 "/>
</symbol>
<symbol overflow="visible" id="glyph0-17">
<path style="stroke:none;" d="M 3.640625 -2.234375 C 3.640625 -2.753906 3.53125 -3.15625 3.3125 -3.4375 C 3.09375 -3.726562 2.789062 -3.875 2.40625 -3.875 C 2.019531 -3.875 1.71875 -3.726562 1.5 -3.4375 C 1.289062 -3.15625 1.1875 -2.753906 1.1875 -2.234375 C 1.1875 -1.722656 1.289062 -1.320312 1.5 -1.03125 C 1.71875 -0.75 2.019531 -0.609375 2.40625 -0.609375 C 2.789062 -0.609375 3.09375 -0.75 3.3125 -1.03125 C 3.53125 -1.320312 3.640625 -1.722656 3.640625 -2.234375 Z M 4.359375 -0.546875 C 4.359375 0.203125 4.191406 0.757812 3.859375 1.125 C 3.523438 1.488281 3.019531 1.671875 2.34375 1.671875 C 2.082031 1.671875 1.835938 1.648438 1.609375 1.609375 C 1.390625 1.566406 1.175781 1.507812 0.96875 1.4375 L 0.96875 0.734375 C 1.175781 0.847656 1.382812 0.929688 1.59375 0.984375 C 1.800781 1.046875 2.007812 1.078125 2.21875 1.078125 C 2.695312 1.078125 3.050781 0.953125 3.28125 0.703125 C 3.519531 0.453125 3.640625 0.078125 3.640625 -0.421875 L 3.640625 -0.765625 C 3.484375 -0.515625 3.289062 -0.320312 3.0625 -0.1875 C 2.832031 -0.0625 2.554688 0 2.234375 0 C 1.691406 0 1.253906 -0.203125 0.921875 -0.609375 C 0.597656 -1.023438 0.4375 -1.566406 0.4375 -2.234375 C 0.4375 -2.910156 0.597656 -3.453125 0.921875 -3.859375 C 1.253906 -4.273438 1.691406 -4.484375 2.234375 -4.484375 C 2.554688 -4.484375 2.832031 -4.414062 3.0625 -4.28125 C 3.289062 -4.15625 3.484375 -3.96875 3.640625 -3.71875 L 3.640625 -4.375 L 4.359375 -4.375 Z M 4.359375 -0.546875 "/>
</symbol>
<symbol overflow="visible" id="glyph0-18">
<path style="stroke:none;" d="M 3.546875 -4.25 L 3.546875 -3.5625 C 3.335938 -3.664062 3.125 -3.742188 2.90625 -3.796875 C 2.6875 -3.847656 2.460938 -3.875 2.234375 -3.875 C 1.878906 -3.875 1.609375 -3.816406 1.421875 -3.703125 C 1.242188 -3.597656 1.15625 -3.4375 1.15625 -3.21875 C 1.15625 -3.050781 1.21875 -2.921875 1.34375 -2.828125 C 1.476562 -2.734375 1.738281 -2.644531 2.125 -2.5625 L 2.375 -2.5 C 2.882812 -2.394531 3.242188 -2.242188 3.453125 -2.046875 C 3.671875 -1.847656 3.78125 -1.566406 3.78125 -1.203125 C 3.78125 -0.796875 3.617188 -0.472656 3.296875 -0.234375 C 2.972656 -0.00390625 2.53125 0.109375 1.96875 0.109375 C 1.738281 0.109375 1.492188 0.0820312 1.234375 0.03125 C 0.984375 -0.0078125 0.71875 -0.0703125 0.4375 -0.15625 L 0.4375 -0.90625 C 0.695312 -0.769531 0.957031 -0.664062 1.21875 -0.59375 C 1.476562 -0.519531 1.734375 -0.484375 1.984375 -0.484375 C 2.328125 -0.484375 2.585938 -0.539062 2.765625 -0.65625 C 2.953125 -0.78125 3.046875 -0.945312 3.046875 -1.15625 C 3.046875 -1.351562 2.976562 -1.503906 2.84375 -1.609375 C 2.707031 -1.710938 2.421875 -1.8125 1.984375 -1.90625 L 1.734375 -1.96875 C 1.285156 -2.0625 0.960938 -2.203125 0.765625 -2.390625 C 0.566406 -2.585938 0.46875 -2.851562 0.46875 -3.1875 C 0.46875 -3.601562 0.613281 -3.921875 0.90625 -4.140625 C 1.195312 -4.367188 1.609375 -4.484375 2.140625 -4.484375 C 2.410156 -4.484375 2.660156 -4.460938 2.890625 -4.421875 C 3.128906 -4.378906 3.347656 -4.320312 3.546875 -4.25 Z M 3.546875 -4.25 "/>
</symbol>
<symbol overflow="visible" id="glyph0-19">
<path style="stroke:none;" d="M 2.453125 -3.875 C 2.066406 -3.875 1.757812 -3.722656 1.53125 -3.421875 C 1.3125 -3.117188 1.203125 -2.707031 1.203125 -2.1875 C 1.203125 -1.664062 1.3125 -1.253906 1.53125 -0.953125 C 1.757812 -0.648438 2.066406 -0.5 2.453125 -0.5 C 2.835938 -0.5 3.140625 -0.648438 3.359375 -0.953125 C 3.585938 -1.253906 3.703125 -1.664062 3.703125 -2.1875 C 3.703125 -2.707031 3.585938 -3.117188 3.359375 -3.421875 C 3.140625 -3.722656 2.835938 -3.875 2.453125 -3.875 Z M 2.453125 -4.484375 C 3.078125 -4.484375 3.566406 -4.28125 3.921875 -3.875 C 4.273438 -3.46875 4.453125 -2.90625 4.453125 -2.1875 C 4.453125 -1.46875 4.273438 -0.90625 3.921875 -0.5 C 3.566406 -0.09375 3.078125 0.109375 2.453125 0.109375 C 1.828125 0.109375 1.332031 -0.09375 0.96875 -0.5 C 0.613281 -0.90625 0.4375 -1.46875 0.4375 -2.1875 C 0.4375 -2.90625 0.613281 -3.46875 0.96875 -3.875 C 1.332031 -4.28125 1.828125 -4.484375 2.453125 -4.484375 Z M 2.453125 -4.484375 "/>
</symbol>
<symbol overflow="visible" id="glyph0-20">
<path style="stroke:none;" d="M 4.15625 -3.53125 C 4.34375 -3.851562 4.5625 -4.09375 4.8125 -4.25 C 5.0625 -4.40625 5.351562 -4.484375 5.6875 -4.484375 C 6.144531 -4.484375 6.492188 -4.320312 6.734375 -4 C 6.984375 -3.6875 7.109375 -3.234375 7.109375 -2.640625 L 7.109375 0 L 6.390625 0 L 6.390625 -2.625 C 6.390625 -3.039062 6.316406 -3.347656 6.171875 -3.546875 C 6.023438 -3.753906 5.796875 -3.859375 5.484375 -3.859375 C 5.117188 -3.859375 4.828125 -3.734375 4.609375 -3.484375 C 4.390625 -3.234375 4.28125 -2.894531 4.28125 -2.46875 L 4.28125 0 L 3.5625 0 L 3.5625 -2.625 C 3.5625 -3.039062 3.484375 -3.347656 3.328125 -3.546875 C 3.179688 -3.753906 2.957031 -3.859375 2.65625 -3.859375 C 2.28125 -3.859375 1.984375 -3.734375 1.765625 -3.484375 C 1.554688 -3.234375 1.453125 -2.894531 1.453125 -2.46875 L 1.453125 0 L 0.734375 0 L 0.734375 -4.375 L 1.453125 -4.375 L 1.453125 -3.703125 C 1.617188 -3.960938 1.816406 -4.15625 2.046875 -4.28125 C 2.273438 -4.414062 2.546875 -4.484375 2.859375 -4.484375 C 3.171875 -4.484375 3.4375 -4.398438 3.65625 -4.234375 C 3.882812 -4.078125 4.050781 -3.84375 4.15625 -3.53125 Z M 4.15625 -3.53125 "/>
</symbol>
<symbol overflow="visible" id="glyph0-21">
<path style="stroke:none;" d="M 0.640625 -6.078125 L 1.265625 -6.078125 C 1.660156 -5.460938 1.953125 -4.859375 2.140625 -4.265625 C 2.335938 -3.679688 2.4375 -3.097656 2.4375 -2.515625 C 2.4375 -1.929688 2.335938 -1.34375 2.140625 -0.75 C 1.953125 -0.15625 1.660156 0.445312 1.265625 1.0625 L 0.640625 1.0625 C 0.984375 0.457031 1.238281 -0.132812 1.40625 -0.71875 C 1.582031 -1.3125 1.671875 -1.910156 1.671875 -2.515625 C 1.671875 -3.117188 1.582031 -3.710938 1.40625 -4.296875 C 1.238281 -4.878906 0.984375 -5.472656 0.640625 -6.078125 Z M 0.640625 -6.078125 "/>
</symbol>
<symbol overflow="visible" id="glyph0-22">
<path style="stroke:none;" d="M 0.78125 -5.828125 L 1.84375 -5.828125 L 4.4375 -0.953125 L 4.4375 -5.828125 L 5.203125 -5.828125 L 5.203125 0 L 4.140625 0 L 1.546875 -4.875 L 1.546875 0 L 0.78125 0 Z M 0.78125 -5.828125 "/>
</symbol>
<symbol overflow="visible" id="glyph0-23">
<path style="stroke:none;" d="M 0.234375 -4.375 L 1 -4.375 L 2.375 -0.703125 L 3.734375 -4.375 L 4.5 -4.375 L 2.859375 0 L 1.875 0 Z M 0.234375 -4.375 "/>
</symbol>
<symbol overflow="visible" id="glyph0-24">
<path style="stroke:none;" d="M 4.390625 -2.640625 L 4.390625 0 L 3.671875 0 L 3.671875 -2.625 C 3.671875 -3.03125 3.585938 -3.335938 3.421875 -3.546875 C 3.265625 -3.753906 3.023438 -3.859375 2.703125 -3.859375 C 2.316406 -3.859375 2.007812 -3.734375 1.78125 -3.484375 C 1.5625 -3.234375 1.453125 -2.894531 1.453125 -2.46875 L 1.453125 0 L 0.734375 0 L 0.734375 -6.078125 L 1.453125 -6.078125 L 1.453125 -3.703125 C 1.617188 -3.960938 1.816406 -4.15625 2.046875 -4.28125 C 2.285156 -4.414062 2.554688 -4.484375 2.859375 -4.484375 C 3.367188 -4.484375 3.75 -4.328125 4 -4.015625 C 4.257812 -3.703125 4.390625 -3.242188 4.390625 -2.640625 Z M 4.390625 -2.640625 "/>
</symbol>
<symbol overflow="visible" id="glyph1-0">
<path style="stroke:none;" d="M 0.5 1.765625 L 0.5 -7.046875 L 5.5 -7.046875 L 5.5 1.765625 Z M 1.0625 1.21875 L 4.9375 1.21875 L 4.9375 -6.484375 L 1.0625 -6.484375 Z M 1.0625 1.21875 "/>
</symbol>
<symbol overflow="visible" id="glyph1-1">
<path style="stroke:none;" d="M 5.359375 -7.046875 L 5.359375 -6.09375 C 4.984375 -6.269531 4.628906 -6.398438 4.296875 -6.484375 C 3.960938 -6.578125 3.640625 -6.625 3.328125 -6.625 C 2.796875 -6.625 2.382812 -6.519531 2.09375 -6.3125 C 1.800781 -6.101562 1.65625 -5.804688 1.65625 -5.421875 C 1.65625 -5.097656 1.75 -4.851562 1.9375 -4.6875 C 2.132812 -4.519531 2.503906 -4.390625 3.046875 -4.296875 L 3.640625 -4.171875 C 4.367188 -4.023438 4.910156 -3.773438 5.265625 -3.421875 C 5.617188 -3.078125 5.796875 -2.609375 5.796875 -2.015625 C 5.796875 -1.304688 5.554688 -0.769531 5.078125 -0.40625 C 4.609375 -0.0390625 3.914062 0.140625 3 0.140625 C 2.65625 0.140625 2.285156 0.0976562 1.890625 0.015625 C 1.503906 -0.0546875 1.101562 -0.171875 0.6875 -0.328125 L 0.6875 -1.34375 C 1.09375 -1.113281 1.484375 -0.941406 1.859375 -0.828125 C 2.242188 -0.710938 2.625 -0.65625 3 -0.65625 C 3.5625 -0.65625 3.992188 -0.765625 4.296875 -0.984375 C 4.609375 -1.210938 4.765625 -1.53125 4.765625 -1.9375 C 4.765625 -2.289062 4.65625 -2.566406 4.4375 -2.765625 C 4.21875 -2.972656 3.851562 -3.128906 3.34375 -3.234375 L 2.75 -3.34375 C 2.007812 -3.488281 1.472656 -3.71875 1.140625 -4.03125 C 0.816406 -4.34375 0.65625 -4.78125 0.65625 -5.34375 C 0.65625 -5.988281 0.878906 -6.492188 1.328125 -6.859375 C 1.785156 -7.234375 2.414062 -7.421875 3.21875 -7.421875 C 3.5625 -7.421875 3.910156 -7.390625 4.265625 -7.328125 C 4.617188 -7.265625 4.984375 -7.171875 5.359375 -7.046875 Z M 5.359375 -7.046875 "/>
</symbol>
<symbol overflow="visible" id="glyph1-2">
<path style="stroke:none;" d="M 5.625 -2.953125 L 5.625 -2.515625 L 1.484375 -2.515625 C 1.523438 -1.898438 1.710938 -1.429688 2.046875 -1.109375 C 2.378906 -0.785156 2.84375 -0.625 3.4375 -0.625 C 3.78125 -0.625 4.113281 -0.664062 4.4375 -0.75 C 4.769531 -0.832031 5.09375 -0.957031 5.40625 -1.125 L 5.40625 -0.28125 C 5.082031 -0.144531 4.75 -0.0390625 4.40625 0.03125 C 4.070312 0.101562 3.734375 0.140625 3.390625 0.140625 C 2.515625 0.140625 1.820312 -0.109375 1.3125 -0.609375 C 0.800781 -1.117188 0.546875 -1.8125 0.546875 -2.6875 C 0.546875 -3.582031 0.785156 -4.289062 1.265625 -4.8125 C 1.753906 -5.332031 2.410156 -5.59375 3.234375 -5.59375 C 3.972656 -5.59375 4.554688 -5.359375 4.984375 -4.890625 C 5.410156 -4.421875 5.625 -3.773438 5.625 -2.953125 Z M 4.71875 -3.21875 C 4.71875 -3.707031 4.582031 -4.097656 4.3125 -4.390625 C 4.039062 -4.691406 3.6875 -4.84375 3.25 -4.84375 C 2.738281 -4.84375 2.332031 -4.695312 2.03125 -4.40625 C 1.738281 -4.125 1.566406 -3.726562 1.515625 -3.21875 Z M 4.71875 -3.21875 "/>
</symbol>
<symbol overflow="visible" id="glyph1-3">
<path style="stroke:none;" d="M 4.546875 -2.796875 C 4.546875 -3.453125 4.410156 -3.957031 4.140625 -4.3125 C 3.867188 -4.664062 3.492188 -4.84375 3.015625 -4.84375 C 2.523438 -4.84375 2.144531 -4.664062 1.875 -4.3125 C 1.613281 -3.957031 1.484375 -3.453125 1.484375 -2.796875 C 1.484375 -2.148438 1.613281 -1.644531 1.875 -1.28125 C 2.144531 -0.925781 2.523438 -0.75 3.015625 -0.75 C 3.492188 -0.75 3.867188 -0.925781 4.140625 -1.28125 C 4.410156 -1.644531 4.546875 -2.148438 4.546875 -2.796875 Z M 5.4375 -0.671875 C 5.4375 0.253906 5.226562 0.941406 4.8125 1.390625 C 4.40625 1.847656 3.773438 2.078125 2.921875 2.078125 C 2.609375 2.078125 2.3125 2.050781 2.03125 2 C 1.75 1.957031 1.476562 1.890625 1.21875 1.796875 L 1.21875 0.921875 C 1.476562 1.066406 1.734375 1.171875 1.984375 1.234375 C 2.242188 1.304688 2.507812 1.34375 2.78125 1.34375 C 3.363281 1.34375 3.800781 1.1875 4.09375 0.875 C 4.394531 0.570312 4.546875 0.109375 4.546875 -0.515625 L 4.546875 -0.96875 C 4.359375 -0.644531 4.117188 -0.398438 3.828125 -0.234375 C 3.535156 -0.078125 3.1875 0 2.78125 0 C 2.113281 0 1.570312 -0.253906 1.15625 -0.765625 C 0.75 -1.273438 0.546875 -1.953125 0.546875 -2.796875 C 0.546875 -3.640625 0.75 -4.316406 1.15625 -4.828125 C 1.570312 -5.335938 2.113281 -5.59375 2.78125 -5.59375 C 3.1875 -5.59375 3.535156 -5.515625 3.828125 -5.359375 C 4.117188 -5.203125 4.359375 -4.960938 4.546875 -4.640625 L 4.546875 -5.46875 L 5.4375 -5.46875 Z M 5.4375 -0.671875 "/>
</symbol>
<symbol overflow="visible" id="glyph1-4">
<path style="stroke:none;" d="M 5.203125 -4.421875 C 5.421875 -4.828125 5.6875 -5.125 6 -5.3125 C 6.3125 -5.5 6.679688 -5.59375 7.109375 -5.59375 C 7.679688 -5.59375 8.117188 -5.394531 8.421875 -5 C 8.734375 -4.601562 8.890625 -4.035156 8.890625 -3.296875 L 8.890625 0 L 7.984375 0 L 7.984375 -3.265625 C 7.984375 -3.796875 7.890625 -4.1875 7.703125 -4.4375 C 7.523438 -4.6875 7.242188 -4.8125 6.859375 -4.8125 C 6.390625 -4.8125 6.019531 -4.65625 5.75 -4.34375 C 5.488281 -4.039062 5.359375 -3.625 5.359375 -3.09375 L 5.359375 0 L 4.453125 0 L 4.453125 -3.265625 C 4.453125 -3.796875 4.359375 -4.1875 4.171875 -4.4375 C 3.984375 -4.6875 3.695312 -4.8125 3.3125 -4.8125 C 2.851562 -4.8125 2.488281 -4.65625 2.21875 -4.34375 C 1.945312 -4.039062 1.8125 -3.625 1.8125 -3.09375 L 1.8125 0 L 0.90625 0 L 0.90625 -5.46875 L 1.8125 -5.46875 L 1.8125 -4.625 C 2.019531 -4.957031 2.265625 -5.203125 2.546875 -5.359375 C 2.835938 -5.515625 3.175781 -5.59375 3.5625 -5.59375 C 3.96875 -5.59375 4.304688 -5.492188 4.578125 -5.296875 C 4.859375 -5.097656 5.066406 -4.804688 5.203125 -4.421875 Z M 5.203125 -4.421875 "/>
</symbol>
<symbol overflow="visible" id="glyph1-5">
<path style="stroke:none;" d="M 5.484375 -3.296875 L 5.484375 0 L 4.59375 0 L 4.59375 -3.265625 C 4.59375 -3.785156 4.488281 -4.171875 4.28125 -4.421875 C 4.082031 -4.679688 3.78125 -4.8125 3.375 -4.8125 C 2.894531 -4.8125 2.515625 -4.65625 2.234375 -4.34375 C 1.953125 -4.039062 1.8125 -3.625 1.8125 -3.09375 L 1.8125 0 L 0.90625 0 L 0.90625 -5.46875 L 1.8125 -5.46875 L 1.8125 -4.625 C 2.03125 -4.945312 2.285156 -5.1875 2.578125 -5.34375 C 2.867188 -5.507812 3.203125 -5.59375 3.578125 -5.59375 C 4.203125 -5.59375 4.675781 -5.398438 5 -5.015625 C 5.320312 -4.628906 5.484375 -4.054688 5.484375 -3.296875 Z M 5.484375 -3.296875 "/>
</symbol>
<symbol overflow="visible" id="glyph1-6">
<path style="stroke:none;" d="M 1.828125 -7.015625 L 1.828125 -5.46875 L 3.6875 -5.46875 L 3.6875 -4.765625 L 1.828125 -4.765625 L 1.828125 -1.796875 C 1.828125 -1.359375 1.890625 -1.070312 2.015625 -0.9375 C 2.140625 -0.8125 2.390625 -0.75 2.765625 -0.75 L 3.6875 -0.75 L 3.6875 0 L 2.765625 0 C 2.066406 0 1.582031 -0.128906 1.3125 -0.390625 C 1.050781 -0.648438 0.921875 -1.117188 0.921875 -1.796875 L 0.921875 -4.765625 L 0.265625 -4.765625 L 0.265625 -5.46875 L 0.921875 -5.46875 L 0.921875 -7.015625 Z M 1.828125 -7.015625 "/>
</symbol>
<symbol overflow="visible" id="glyph1-7">
<path style="stroke:none;" d=""/>
</symbol>
<symbol overflow="visible" id="glyph1-8">
<path style="stroke:none;" d="M 4.421875 -5.3125 L 4.421875 -4.453125 C 4.171875 -4.585938 3.910156 -4.6875 3.640625 -4.75 C 3.367188 -4.8125 3.082031 -4.84375 2.78125 -4.84375 C 2.34375 -4.84375 2.007812 -4.773438 1.78125 -4.640625 C 1.5625 -4.503906 1.453125 -4.300781 1.453125 -4.03125 C 1.453125 -3.820312 1.53125 -3.65625 1.6875 -3.53125 C 1.84375 -3.414062 2.164062 -3.304688 2.65625 -3.203125 L 2.953125 -3.125 C 3.597656 -2.988281 4.050781 -2.796875 4.3125 -2.546875 C 4.582031 -2.296875 4.71875 -1.953125 4.71875 -1.515625 C 4.71875 -1.003906 4.515625 -0.597656 4.109375 -0.296875 C 3.710938 -0.00390625 3.164062 0.140625 2.46875 0.140625 C 2.164062 0.140625 1.851562 0.109375 1.53125 0.046875 C 1.21875 -0.00390625 0.890625 -0.0859375 0.546875 -0.203125 L 0.546875 -1.125 C 0.878906 -0.957031 1.203125 -0.828125 1.515625 -0.734375 C 1.835938 -0.648438 2.160156 -0.609375 2.484375 -0.609375 C 2.898438 -0.609375 3.222656 -0.679688 3.453125 -0.828125 C 3.679688 -0.972656 3.796875 -1.175781 3.796875 -1.4375 C 3.796875 -1.6875 3.710938 -1.875 3.546875 -2 C 3.390625 -2.132812 3.03125 -2.257812 2.46875 -2.375 L 2.15625 -2.453125 C 1.601562 -2.566406 1.203125 -2.742188 0.953125 -2.984375 C 0.703125 -3.234375 0.578125 -3.566406 0.578125 -3.984375 C 0.578125 -4.503906 0.757812 -4.898438 1.125 -5.171875 C 1.488281 -5.453125 2.007812 -5.59375 2.6875 -5.59375 C 3.007812 -5.59375 3.316406 -5.566406 3.609375 -5.515625 C 3.910156 -5.472656 4.179688 -5.40625 4.421875 -5.3125 Z M 4.421875 -5.3125 "/>
</symbol>
<symbol overflow="visible" id="glyph1-9">
<path style="stroke:none;" d="M 0.9375 -5.46875 L 1.84375 -5.46875 L 1.84375 0 L 0.9375 0 Z M 0.9375 -7.59375 L 1.84375 -7.59375 L 1.84375 -6.453125 L 0.9375 -6.453125 Z M 0.9375 -7.59375 "/>
</symbol>
<symbol overflow="visible" id="glyph1-10">
<path style="stroke:none;" d="M 0.546875 -5.46875 L 4.8125 -5.46875 L 4.8125 -4.65625 L 1.4375 -0.71875 L 4.8125 -0.71875 L 4.8125 0 L 0.4375 0 L 0.4375 -0.828125 L 3.8125 -4.75 L 0.546875 -4.75 Z M 0.546875 -5.46875 "/>
</symbol>
<symbol overflow="visible" id="glyph1-11">
<path style="stroke:none;" d="M 0.90625 -7.59375 L 1.8125 -7.59375 L 1.8125 -3.109375 L 4.5 -5.46875 L 5.640625 -5.46875 L 2.734375 -2.90625 L 5.765625 0 L 4.59375 0 L 1.8125 -2.671875 L 1.8125 0 L 0.90625 0 Z M 0.90625 -7.59375 "/>
</symbol>
<symbol overflow="visible" id="glyph1-12">
<path style="stroke:none;" d="M 0.9375 -7.59375 L 1.84375 -7.59375 L 1.84375 0 L 0.9375 0 Z M 0.9375 -7.59375 "/>
</symbol>
<symbol overflow="visible" id="glyph1-13">
<path style="stroke:none;" d="M 3.0625 -4.84375 C 2.582031 -4.84375 2.203125 -4.65625 1.921875 -4.28125 C 1.640625 -3.90625 1.5 -3.390625 1.5 -2.734375 C 1.5 -2.078125 1.632812 -1.5625 1.90625 -1.1875 C 2.1875 -0.8125 2.570312 -0.625 3.0625 -0.625 C 3.539062 -0.625 3.921875 -0.8125 4.203125 -1.1875 C 4.484375 -1.5625 4.625 -2.078125 4.625 -2.734375 C 4.625 -3.378906 4.484375 -3.890625 4.203125 -4.265625 C 3.921875 -4.648438 3.539062 -4.84375 3.0625 -4.84375 Z M 3.0625 -5.59375 C 3.84375 -5.59375 4.457031 -5.335938 4.90625 -4.828125 C 5.351562 -4.328125 5.578125 -3.628906 5.578125 -2.734375 C 5.578125 -1.835938 5.351562 -1.132812 4.90625 -0.625 C 4.457031 -0.113281 3.84375 0.140625 3.0625 0.140625 C 2.28125 0.140625 1.664062 -0.113281 1.21875 -0.625 C 0.769531 -1.132812 0.546875 -1.835938 0.546875 -2.734375 C 0.546875 -3.628906 0.769531 -4.328125 1.21875 -4.828125 C 1.664062 -5.335938 2.28125 -5.59375 3.0625 -5.59375 Z M 3.0625 -5.59375 "/>
</symbol>
<symbol overflow="visible" id="glyph1-14">
<path style="stroke:none;" d="M 4.875 -2.734375 C 4.875 -3.390625 4.734375 -3.90625 4.453125 -4.28125 C 4.179688 -4.65625 3.8125 -4.84375 3.34375 -4.84375 C 2.863281 -4.84375 2.488281 -4.65625 2.21875 -4.28125 C 1.945312 -3.90625 1.8125 -3.390625 1.8125 -2.734375 C 1.8125 -2.066406 1.945312 -1.546875 2.21875 -1.171875 C 2.488281 -0.796875 2.863281 -0.609375 3.34375 -0.609375 C 3.8125 -0.609375 4.179688 -0.796875 4.453125 -1.171875 C 4.734375 -1.546875 4.875 -2.066406 4.875 -2.734375 Z M 1.8125 -4.640625 C 2 -4.960938 2.234375 -5.203125 2.515625 -5.359375 C 2.804688 -5.515625 3.15625 -5.59375 3.5625 -5.59375 C 4.226562 -5.59375 4.765625 -5.328125 5.171875 -4.796875 C 5.585938 -4.273438 5.796875 -3.585938 5.796875 -2.734375 C 5.796875 -1.867188 5.585938 -1.171875 5.171875 -0.640625 C 4.765625 -0.117188 4.226562 0.140625 3.5625 0.140625 C 3.15625 0.140625 2.804688 0.0625 2.515625 -0.09375 C 2.234375 -0.25 2 -0.492188 1.8125 -0.828125 L 1.8125 0 L 0.90625 0 L 0.90625 -7.59375 L 1.8125 -7.59375 Z M 1.8125 -4.640625 "/>
</symbol>
<symbol overflow="visible" id="glyph1-15">
<path style="stroke:none;" d="M 3.21875 0.515625 C 2.96875 1.160156 2.71875 1.582031 2.46875 1.78125 C 2.226562 1.976562 1.910156 2.078125 1.515625 2.078125 L 0.796875 2.078125 L 0.796875 1.328125 L 1.3125 1.328125 C 1.5625 1.328125 1.753906 1.269531 1.890625 1.15625 C 2.023438 1.039062 2.175781 0.765625 2.34375 0.328125 L 2.515625 -0.09375 L 0.296875 -5.46875 L 1.25 -5.46875 L 2.953125 -1.1875 L 4.671875 -5.46875 L 5.625 -5.46875 Z M 3.21875 0.515625 "/>
</symbol>
<symbol overflow="visible" id="glyph1-16">
<path style="stroke:none;" d="M 0.984375 -7.296875 L 2.453125 -7.296875 L 4.3125 -2.328125 L 6.1875 -7.296875 L 7.65625 -7.296875 L 7.65625 0 L 6.6875 0 L 6.6875 -6.40625 L 4.8125 -1.40625 L 3.8125 -1.40625 L 1.9375 -6.40625 L 1.9375 0 L 0.984375 0 Z M 0.984375 -7.296875 "/>
</symbol>
<symbol overflow="visible" id="glyph1-17">
<path style="stroke:none;" d="M 1.96875 -3.484375 L 1.96875 -0.8125 L 3.546875 -0.8125 C 4.078125 -0.8125 4.46875 -0.921875 4.71875 -1.140625 C 4.976562 -1.359375 5.109375 -1.695312 5.109375 -2.15625 C 5.109375 -2.601562 4.976562 -2.9375 4.71875 -3.15625 C 4.46875 -3.375 4.078125 -3.484375 3.546875 -3.484375 Z M 1.96875 -6.484375 L 1.96875 -4.28125 L 3.421875 -4.28125 C 3.910156 -4.28125 4.269531 -4.367188 4.5 -4.546875 C 4.738281 -4.734375 4.859375 -5.007812 4.859375 -5.375 C 4.859375 -5.75 4.738281 -6.023438 4.5 -6.203125 C 4.269531 -6.390625 3.910156 -6.484375 3.421875 -6.484375 Z M 0.984375 -7.296875 L 3.5 -7.296875 C 4.25 -7.296875 4.828125 -7.140625 5.234375 -6.828125 C 5.640625 -6.515625 5.84375 -6.066406 5.84375 -5.484375 C 5.84375 -5.035156 5.738281 -4.679688 5.53125 -4.421875 C 5.320312 -4.160156 5.019531 -4 4.625 -3.9375 C 5.101562 -3.832031 5.476562 -3.613281 5.75 -3.28125 C 6.019531 -2.945312 6.15625 -2.535156 6.15625 -2.046875 C 6.15625 -1.390625 5.929688 -0.882812 5.484375 -0.53125 C 5.046875 -0.175781 4.414062 0 3.59375 0 L 0.984375 0 Z M 0.984375 -7.296875 "/>
</symbol>
<symbol overflow="visible" id="glyph1-18">
<path style="stroke:none;" d="M 2.546875 -7.296875 L 3.375 -7.296875 L 0.828125 0.921875 L 0 0.921875 Z M 2.546875 -7.296875 "/>
</symbol>
<symbol overflow="visible" id="glyph1-19">
<path style="stroke:none;" d="M 4.4375 -3.421875 C 4.644531 -3.347656 4.847656 -3.191406 5.046875 -2.953125 C 5.253906 -2.722656 5.457031 -2.40625 5.65625 -2 L 6.65625 0 L 5.59375 0 L 4.671875 -1.875 C 4.429688 -2.363281 4.195312 -2.6875 3.96875 -2.84375 C 3.738281 -3 3.429688 -3.078125 3.046875 -3.078125 L 1.96875 -3.078125 L 1.96875 0 L 0.984375 0 L 0.984375 -7.296875 L 3.203125 -7.296875 C 4.035156 -7.296875 4.65625 -7.117188 5.0625 -6.765625 C 5.476562 -6.421875 5.6875 -5.894531 5.6875 -5.1875 C 5.6875 -4.726562 5.578125 -4.347656 5.359375 -4.046875 C 5.148438 -3.742188 4.84375 -3.535156 4.4375 -3.421875 Z M 1.96875 -6.484375 L 1.96875 -3.890625 L 3.203125 -3.890625 C 3.679688 -3.890625 4.039062 -4 4.28125 -4.21875 C 4.53125 -4.4375 4.65625 -4.757812 4.65625 -5.1875 C 4.65625 -5.613281 4.53125 -5.9375 4.28125 -6.15625 C 4.039062 -6.375 3.679688 -6.484375 3.203125 -6.484375 Z M 1.96875 -6.484375 "/>
</symbol>
<symbol overflow="visible" id="glyph1-20">
<path style="stroke:none;" d="M 4.109375 -4.625 C 4.003906 -4.6875 3.894531 -4.726562 3.78125 -4.75 C 3.664062 -4.78125 3.535156 -4.796875 3.390625 -4.796875 C 2.878906 -4.796875 2.488281 -4.628906 2.21875 -4.296875 C 1.945312 -3.972656 1.8125 -3.5 1.8125 -2.875 L 1.8125 0 L 0.90625 0 L 0.90625 -5.46875 L 1.8125 -5.46875 L 1.8125 -4.625 C 2 -4.957031 2.242188 -5.203125 2.546875 -5.359375 C 2.847656 -5.515625 3.21875 -5.59375 3.65625 -5.59375 C 3.71875 -5.59375 3.785156 -5.585938 3.859375 -5.578125 C 3.929688 -5.578125 4.015625 -5.566406 4.109375 -5.546875 Z M 4.109375 -4.625 "/>
</symbol>
<symbol overflow="visible" id="glyph1-21">
<path style="stroke:none;" d="M 3.421875 -2.75 C 2.703125 -2.75 2.203125 -2.664062 1.921875 -2.5 C 1.640625 -2.332031 1.5 -2.050781 1.5 -1.65625 C 1.5 -1.332031 1.601562 -1.078125 1.8125 -0.890625 C 2.019531 -0.703125 2.304688 -0.609375 2.671875 -0.609375 C 3.171875 -0.609375 3.570312 -0.785156 3.875 -1.140625 C 4.175781 -1.492188 4.328125 -1.960938 4.328125 -2.546875 L 4.328125 -2.75 Z M 5.21875 -3.125 L 5.21875 0 L 4.328125 0 L 4.328125 -0.828125 C 4.117188 -0.492188 3.859375 -0.25 3.546875 -0.09375 C 3.242188 0.0625 2.875 0.140625 2.4375 0.140625 C 1.875 0.140625 1.425781 -0.015625 1.09375 -0.328125 C 0.757812 -0.640625 0.59375 -1.0625 0.59375 -1.59375 C 0.59375 -2.207031 0.800781 -2.671875 1.21875 -2.984375 C 1.632812 -3.296875 2.25 -3.453125 3.0625 -3.453125 L 4.328125 -3.453125 L 4.328125 -3.546875 C 4.328125 -3.953125 4.1875 -4.269531 3.90625 -4.5 C 3.632812 -4.726562 3.253906 -4.84375 2.765625 -4.84375 C 2.453125 -4.84375 2.144531 -4.800781 1.84375 -4.71875 C 1.550781 -4.644531 1.269531 -4.535156 1 -4.390625 L 1 -5.21875 C 1.332031 -5.34375 1.648438 -5.4375 1.953125 -5.5 C 2.265625 -5.5625 2.566406 -5.59375 2.859375 -5.59375 C 3.648438 -5.59375 4.238281 -5.390625 4.625 -4.984375 C 5.019531 -4.578125 5.21875 -3.957031 5.21875 -3.125 Z M 5.21875 -3.125 "/>
</symbol>
<symbol overflow="visible" id="glyph1-22">
<path style="stroke:none;" d="M 4.546875 -4.640625 L 4.546875 -7.59375 L 5.4375 -7.59375 L 5.4375 0 L 4.546875 0 L 4.546875 -0.828125 C 4.359375 -0.492188 4.117188 -0.25 3.828125 -0.09375 C 3.535156 0.0625 3.1875 0.140625 2.78125 0.140625 C 2.125 0.140625 1.585938 -0.117188 1.171875 -0.640625 C 0.753906 -1.171875 0.546875 -1.867188 0.546875 -2.734375 C 0.546875 -3.585938 0.753906 -4.273438 1.171875 -4.796875 C 1.585938 -5.328125 2.125 -5.59375 2.78125 -5.59375 C 3.1875 -5.59375 3.535156 -5.515625 3.828125 -5.359375 C 4.117188 -5.203125 4.359375 -4.960938 4.546875 -4.640625 Z M 1.484375 -2.734375 C 1.484375 -2.066406 1.617188 -1.546875 1.890625 -1.171875 C 2.160156 -0.796875 2.535156 -0.609375 3.015625 -0.609375 C 3.484375 -0.609375 3.851562 -0.796875 4.125 -1.171875 C 4.40625 -1.546875 4.546875 -2.066406 4.546875 -2.734375 C 4.546875 -3.390625 4.40625 -3.90625 4.125 -4.28125 C 3.851562 -4.65625 3.484375 -4.84375 3.015625 -4.84375 C 2.535156 -4.84375 2.160156 -4.65625 1.890625 -4.28125 C 1.617188 -3.90625 1.484375 -3.390625 1.484375 -2.734375 Z M 1.484375 -2.734375 "/>
</symbol>
<symbol overflow="visible" id="glyph1-23">
<path style="stroke:none;" d="M 0.421875 -5.46875 L 1.3125 -5.46875 L 2.4375 -1.203125 L 3.5625 -5.46875 L 4.625 -5.46875 L 5.75 -1.203125 L 6.859375 -5.46875 L 7.765625 -5.46875 L 6.328125 0 L 5.265625 0 L 4.09375 -4.484375 L 2.90625 0 L 1.84375 0 Z M 0.421875 -5.46875 "/>
</symbol>
<symbol overflow="visible" id="glyph1-24">
<path style="stroke:none;" d="M 5.484375 -3.296875 L 5.484375 0 L 4.59375 0 L 4.59375 -3.265625 C 4.59375 -3.785156 4.488281 -4.171875 4.28125 -4.421875 C 4.082031 -4.679688 3.78125 -4.8125 3.375 -4.8125 C 2.894531 -4.8125 2.515625 -4.65625 2.234375 -4.34375 C 1.953125 -4.039062 1.8125 -3.625 1.8125 -3.09375 L 1.8125 0 L 0.90625 0 L 0.90625 -7.59375 L 1.8125 -7.59375 L 1.8125 -4.625 C 2.03125 -4.945312 2.285156 -5.1875 2.578125 -5.34375 C 2.867188 -5.507812 3.203125 -5.59375 3.578125 -5.59375 C 4.203125 -5.59375 4.675781 -5.398438 5 -5.015625 C 5.320312 -4.628906 5.484375 -4.054688 5.484375 -3.296875 Z M 5.484375 -3.296875 "/>
</symbol>
<symbol overflow="visible" id="glyph1-25">
<path style="stroke:none;" d="M 4.875 -5.265625 L 4.875 -4.421875 C 4.625 -4.554688 4.367188 -4.660156 4.109375 -4.734375 C 3.859375 -4.804688 3.601562 -4.84375 3.34375 -4.84375 C 2.757812 -4.84375 2.304688 -4.65625 1.984375 -4.28125 C 1.660156 -3.914062 1.5 -3.398438 1.5 -2.734375 C 1.5 -2.066406 1.660156 -1.546875 1.984375 -1.171875 C 2.304688 -0.804688 2.757812 -0.625 3.34375 -0.625 C 3.601562 -0.625 3.859375 -0.65625 4.109375 -0.71875 C 4.367188 -0.789062 4.625 -0.898438 4.875 -1.046875 L 4.875 -0.203125 C 4.625 -0.0859375 4.363281 -0.00390625 4.09375 0.046875 C 3.832031 0.109375 3.550781 0.140625 3.25 0.140625 C 2.414062 0.140625 1.753906 -0.113281 1.265625 -0.625 C 0.785156 -1.144531 0.546875 -1.847656 0.546875 -2.734375 C 0.546875 -3.617188 0.789062 -4.316406 1.28125 -4.828125 C 1.769531 -5.335938 2.441406 -5.59375 3.296875 -5.59375 C 3.578125 -5.59375 3.847656 -5.566406 4.109375 -5.515625 C 4.367188 -5.460938 4.625 -5.378906 4.875 -5.265625 Z M 4.875 -5.265625 "/>
</symbol>
<symbol overflow="visible" id="glyph1-26">
<path style="stroke:none;" d="M 1.8125 -0.828125 L 1.8125 2.078125 L 0.90625 2.078125 L 0.90625 -5.46875 L 1.8125 -5.46875 L 1.8125 -4.640625 C 2 -4.960938 2.234375 -5.203125 2.515625 -5.359375 C 2.804688 -5.515625 3.15625 -5.59375 3.5625 -5.59375 C 4.226562 -5.59375 4.765625 -5.328125 5.171875 -4.796875 C 5.585938 -4.273438 5.796875 -3.585938 5.796875 -2.734375 C 5.796875 -1.867188 5.585938 -1.171875 5.171875 -0.640625 C 4.765625 -0.117188 4.226562 0.140625 3.5625 0.140625 C 3.15625 0.140625 2.804688 0.0625 2.515625 -0.09375 C 2.234375 -0.25 2 -0.492188 1.8125 -0.828125 Z M 4.875 -2.734375 C 4.875 -3.390625 4.734375 -3.90625 4.453125 -4.28125 C 4.179688 -4.65625 3.8125 -4.84375 3.34375 -4.84375 C 2.863281 -4.84375 2.488281 -4.65625 2.21875 -4.28125 C 1.945312 -3.90625 1.8125 -3.390625 1.8125 -2.734375 C 1.8125 -2.066406 1.945312 -1.546875 2.21875 -1.171875 C 2.488281 -0.796875 2.863281 -0.609375 3.34375 -0.609375 C 3.8125 -0.609375 4.179688 -0.796875 4.453125 -1.171875 C 4.734375 -1.546875 4.875 -2.066406 4.875 -2.734375 Z M 4.875 -2.734375 "/>
</symbol>
<symbol overflow="visible" id="glyph2-0">
<path style="stroke:none;" d="M 0.296875 1.0625 L 0.296875 -4.234375 L 3.296875 -4.234375 L 3.296875 1.0625 Z M 0.640625 0.734375 L 2.96875 0.734375 L 2.96875 -3.890625 L 0.640625 -3.890625 Z M 0.640625 0.734375 "/>
</symbol>
<symbol overflow="visible" id="glyph2-1">
<path style="stroke:none;" d="M 2.265625 -3.859375 L 0.78125 -1.53125 L 2.265625 -1.53125 Z M 2.109375 -4.375 L 2.859375 -4.375 L 2.859375 -1.53125 L 3.484375 -1.53125 L 3.484375 -1.03125 L 2.859375 -1.03125 L 2.859375 0 L 2.265625 0 L 2.265625 -1.03125 L 0.296875 -1.03125 L 0.296875 -1.609375 Z M 2.109375 -4.375 "/>
</symbol>
<symbol overflow="visible" id="glyph2-2">
<path style="stroke:none;" d=""/>
</symbol>
<symbol overflow="visible" id="glyph2-3">
<path style="stroke:none;" d="M 0.59375 -4.375 L 1.1875 -4.375 L 1.1875 -2.53125 L 3.140625 -4.375 L 3.90625 -4.375 L 1.734375 -2.328125 L 4.0625 0 L 3.28125 0 L 1.1875 -2.109375 L 1.1875 0 L 0.59375 0 Z M 0.59375 -4.375 "/>
</symbol>
<symbol overflow="visible" id="glyph2-4">
<path style="stroke:none;" d="M 1.1875 -2.09375 L 1.1875 -0.484375 L 2.125 -0.484375 C 2.445312 -0.484375 2.679688 -0.546875 2.828125 -0.671875 C 2.984375 -0.804688 3.0625 -1.015625 3.0625 -1.296875 C 3.0625 -1.566406 2.984375 -1.765625 2.828125 -1.890625 C 2.679688 -2.023438 2.445312 -2.09375 2.125 -2.09375 Z M 1.1875 -3.890625 L 1.1875 -2.5625 L 2.0625 -2.5625 C 2.34375 -2.5625 2.554688 -2.613281 2.703125 -2.71875 C 2.847656 -2.832031 2.921875 -3.003906 2.921875 -3.234375 C 2.921875 -3.453125 2.847656 -3.613281 2.703125 -3.71875 C 2.554688 -3.832031 2.34375 -3.890625 2.0625 -3.890625 Z M 0.59375 -4.375 L 2.09375 -4.375 C 2.550781 -4.375 2.898438 -4.28125 3.140625 -4.09375 C 3.390625 -3.90625 3.515625 -3.640625 3.515625 -3.296875 C 3.515625 -3.023438 3.453125 -2.8125 3.328125 -2.65625 C 3.203125 -2.5 3.015625 -2.398438 2.765625 -2.359375 C 3.054688 -2.296875 3.28125 -2.164062 3.4375 -1.96875 C 3.601562 -1.769531 3.6875 -1.519531 3.6875 -1.21875 C 3.6875 -0.832031 3.550781 -0.53125 3.28125 -0.3125 C 3.019531 -0.101562 2.644531 0 2.15625 0 L 0.59375 0 Z M 0.59375 -4.375 "/>
</symbol>
<symbol overflow="visible" id="glyph2-5">
<path style="stroke:none;" d="M 2.4375 -2.359375 C 2.71875 -2.296875 2.9375 -2.164062 3.09375 -1.96875 C 3.257812 -1.78125 3.34375 -1.546875 3.34375 -1.265625 C 3.34375 -0.835938 3.191406 -0.503906 2.890625 -0.265625 C 2.597656 -0.0351562 2.175781 0.078125 1.625 0.078125 C 1.4375 0.078125 1.242188 0.0546875 1.046875 0.015625 C 0.859375 -0.015625 0.660156 -0.0625 0.453125 -0.125 L 0.453125 -0.703125 C 0.617188 -0.609375 0.800781 -0.535156 1 -0.484375 C 1.195312 -0.429688 1.398438 -0.40625 1.609375 -0.40625 C 1.984375 -0.40625 2.265625 -0.476562 2.453125 -0.625 C 2.648438 -0.78125 2.75 -0.992188 2.75 -1.265625 C 2.75 -1.523438 2.65625 -1.726562 2.46875 -1.875 C 2.289062 -2.019531 2.039062 -2.09375 1.71875 -2.09375 L 1.21875 -2.09375 L 1.21875 -2.578125 L 1.75 -2.578125 C 2.039062 -2.578125 2.257812 -2.632812 2.40625 -2.75 C 2.5625 -2.875 2.640625 -3.046875 2.640625 -3.265625 C 2.640625 -3.484375 2.5625 -3.648438 2.40625 -3.765625 C 2.25 -3.890625 2.019531 -3.953125 1.71875 -3.953125 C 1.5625 -3.953125 1.390625 -3.929688 1.203125 -3.890625 C 1.015625 -3.859375 0.8125 -3.804688 0.59375 -3.734375 L 0.59375 -4.265625 C 0.8125 -4.328125 1.019531 -4.375 1.21875 -4.40625 C 1.414062 -4.4375 1.601562 -4.453125 1.78125 -4.453125 C 2.226562 -4.453125 2.582031 -4.347656 2.84375 -4.140625 C 3.101562 -3.941406 3.234375 -3.664062 3.234375 -3.3125 C 3.234375 -3.070312 3.160156 -2.867188 3.015625 -2.703125 C 2.878906 -2.535156 2.6875 -2.421875 2.4375 -2.359375 Z M 2.4375 -2.359375 "/>
</symbol>
<symbol overflow="visible" id="glyph2-6">
<path style="stroke:none;" d="M 1.15625 -0.5 L 3.21875 -0.5 L 3.21875 0 L 0.4375 0 L 0.4375 -0.5 C 0.664062 -0.726562 0.972656 -1.035156 1.359375 -1.421875 C 1.742188 -1.816406 1.988281 -2.070312 2.09375 -2.1875 C 2.28125 -2.40625 2.410156 -2.585938 2.484375 -2.734375 C 2.554688 -2.878906 2.59375 -3.023438 2.59375 -3.171875 C 2.59375 -3.398438 2.507812 -3.585938 2.34375 -3.734375 C 2.1875 -3.878906 1.976562 -3.953125 1.71875 -3.953125 C 1.53125 -3.953125 1.332031 -3.921875 1.125 -3.859375 C 0.925781 -3.796875 0.707031 -3.695312 0.46875 -3.5625 L 0.46875 -4.15625 C 0.707031 -4.257812 0.929688 -4.332031 1.140625 -4.375 C 1.347656 -4.425781 1.535156 -4.453125 1.703125 -4.453125 C 2.160156 -4.453125 2.519531 -4.335938 2.78125 -4.109375 C 3.050781 -3.890625 3.1875 -3.585938 3.1875 -3.203125 C 3.1875 -3.023438 3.148438 -2.851562 3.078125 -2.6875 C 3.015625 -2.53125 2.894531 -2.34375 2.71875 -2.125 C 2.675781 -2.070312 2.519531 -1.910156 2.25 -1.640625 C 1.988281 -1.367188 1.625 -0.988281 1.15625 -0.5 Z M 1.15625 -0.5 "/>
</symbol>
<symbol overflow="visible" id="glyph2-7">
<path style="stroke:none;" d="M 1.984375 -2.421875 C 1.710938 -2.421875 1.5 -2.328125 1.34375 -2.140625 C 1.1875 -1.960938 1.109375 -1.71875 1.109375 -1.40625 C 1.109375 -1.09375 1.1875 -0.84375 1.34375 -0.65625 C 1.5 -0.476562 1.710938 -0.390625 1.984375 -0.390625 C 2.242188 -0.390625 2.453125 -0.476562 2.609375 -0.65625 C 2.765625 -0.84375 2.84375 -1.09375 2.84375 -1.40625 C 2.84375 -1.71875 2.765625 -1.960938 2.609375 -2.140625 C 2.453125 -2.328125 2.242188 -2.421875 1.984375 -2.421875 Z M 3.15625 -4.28125 L 3.15625 -3.734375 C 3.007812 -3.804688 2.859375 -3.859375 2.703125 -3.890625 C 2.554688 -3.929688 2.40625 -3.953125 2.25 -3.953125 C 1.863281 -3.953125 1.566406 -3.820312 1.359375 -3.5625 C 1.148438 -3.300781 1.035156 -2.898438 1.015625 -2.359375 C 1.128906 -2.535156 1.269531 -2.664062 1.4375 -2.75 C 1.613281 -2.84375 1.804688 -2.890625 2.015625 -2.890625 C 2.453125 -2.890625 2.796875 -2.753906 3.046875 -2.484375 C 3.304688 -2.222656 3.4375 -1.863281 3.4375 -1.40625 C 3.4375 -0.957031 3.300781 -0.597656 3.03125 -0.328125 C 2.769531 -0.0546875 2.421875 0.078125 1.984375 0.078125 C 1.472656 0.078125 1.082031 -0.113281 0.8125 -0.5 C 0.550781 -0.882812 0.421875 -1.445312 0.421875 -2.1875 C 0.421875 -2.875 0.582031 -3.421875 0.90625 -3.828125 C 1.238281 -4.242188 1.679688 -4.453125 2.234375 -4.453125 C 2.378906 -4.453125 2.523438 -4.4375 2.671875 -4.40625 C 2.828125 -4.375 2.988281 -4.332031 3.15625 -4.28125 Z M 3.15625 -4.28125 "/>
</symbol>
<symbol overflow="visible" id="glyph2-8">
<path style="stroke:none;" d="M 0.640625 -4.375 L 2.96875 -4.375 L 2.96875 -3.875 L 1.1875 -3.875 L 1.1875 -2.796875 C 1.269531 -2.828125 1.351562 -2.847656 1.4375 -2.859375 C 1.53125 -2.878906 1.617188 -2.890625 1.703125 -2.890625 C 2.191406 -2.890625 2.578125 -2.753906 2.859375 -2.484375 C 3.148438 -2.222656 3.296875 -1.863281 3.296875 -1.40625 C 3.296875 -0.9375 3.148438 -0.570312 2.859375 -0.3125 C 2.566406 -0.0507812 2.148438 0.078125 1.609375 0.078125 C 1.429688 0.078125 1.242188 0.0625 1.046875 0.03125 C 0.859375 0 0.664062 -0.046875 0.46875 -0.109375 L 0.46875 -0.703125 C 0.644531 -0.597656 0.828125 -0.519531 1.015625 -0.46875 C 1.203125 -0.425781 1.398438 -0.40625 1.609375 -0.40625 C 1.941406 -0.40625 2.207031 -0.492188 2.40625 -0.671875 C 2.601562 -0.859375 2.703125 -1.101562 2.703125 -1.40625 C 2.703125 -1.707031 2.601562 -1.945312 2.40625 -2.125 C 2.207031 -2.300781 1.941406 -2.390625 1.609375 -2.390625 C 1.441406 -2.390625 1.28125 -2.367188 1.125 -2.328125 C 0.96875 -2.296875 0.804688 -2.242188 0.640625 -2.171875 Z M 0.640625 -4.375 "/>
</symbol>
<symbol overflow="visible" id="glyph2-9">
<path style="stroke:none;" d="M 0.75 -0.5 L 1.71875 -0.5 L 1.71875 -3.828125 L 0.65625 -3.625 L 0.65625 -4.15625 L 1.703125 -4.375 L 2.296875 -4.375 L 2.296875 -0.5 L 3.265625 -0.5 L 3.265625 0 L 0.75 0 Z M 0.75 -0.5 "/>
</symbol>
<symbol overflow="visible" id="glyph2-10">
<path style="stroke:none;" d="M 0.59375 -4.375 L 1.46875 -4.375 L 2.59375 -1.390625 L 3.703125 -4.375 L 4.59375 -4.375 L 4.59375 0 L 4.015625 0 L 4.015625 -3.84375 L 2.890625 -0.84375 L 2.296875 -0.84375 L 1.15625 -3.84375 L 1.15625 0 L 0.59375 0 Z M 0.59375 -4.375 "/>
</symbol>
<symbol overflow="visible" id="glyph2-11">
<path style="stroke:none;" d="M 1.90625 -2.078125 C 1.625 -2.078125 1.398438 -2 1.234375 -1.84375 C 1.078125 -1.695312 1 -1.492188 1 -1.234375 C 1 -0.960938 1.078125 -0.753906 1.234375 -0.609375 C 1.398438 -0.460938 1.625 -0.390625 1.90625 -0.390625 C 2.1875 -0.390625 2.40625 -0.460938 2.5625 -0.609375 C 2.726562 -0.765625 2.8125 -0.972656 2.8125 -1.234375 C 2.8125 -1.492188 2.726562 -1.695312 2.5625 -1.84375 C 2.40625 -2 2.1875 -2.078125 1.90625 -2.078125 Z M 1.3125 -2.328125 C 1.0625 -2.390625 0.863281 -2.503906 0.71875 -2.671875 C 0.582031 -2.847656 0.515625 -3.0625 0.515625 -3.3125 C 0.515625 -3.664062 0.632812 -3.941406 0.875 -4.140625 C 1.125 -4.347656 1.46875 -4.453125 1.90625 -4.453125 C 2.34375 -4.453125 2.6875 -4.347656 2.9375 -4.140625 C 3.1875 -3.941406 3.3125 -3.664062 3.3125 -3.3125 C 3.3125 -3.0625 3.238281 -2.847656 3.09375 -2.671875 C 2.945312 -2.503906 2.75 -2.390625 2.5 -2.328125 C 2.789062 -2.265625 3.015625 -2.132812 3.171875 -1.9375 C 3.328125 -1.75 3.40625 -1.515625 3.40625 -1.234375 C 3.40625 -0.804688 3.273438 -0.476562 3.015625 -0.25 C 2.753906 -0.03125 2.382812 0.078125 1.90625 0.078125 C 1.425781 0.078125 1.054688 -0.03125 0.796875 -0.25 C 0.535156 -0.476562 0.40625 -0.804688 0.40625 -1.234375 C 0.40625 -1.515625 0.484375 -1.75 0.640625 -1.9375 C 0.804688 -2.132812 1.03125 -2.265625 1.3125 -2.328125 Z M 1.09375 -3.265625 C 1.09375 -3.035156 1.164062 -2.859375 1.3125 -2.734375 C 1.457031 -2.609375 1.65625 -2.546875 1.90625 -2.546875 C 2.15625 -2.546875 2.351562 -2.609375 2.5 -2.734375 C 2.644531 -2.859375 2.71875 -3.035156 2.71875 -3.265625 C 2.71875 -3.492188 2.644531 -3.671875 2.5 -3.796875 C 2.351562 -3.921875 2.15625 -3.984375 1.90625 -3.984375 C 1.65625 -3.984375 1.457031 -3.921875 1.3125 -3.796875 C 1.164062 -3.671875 1.09375 -3.492188 1.09375 -3.265625 Z M 1.09375 -3.265625 "/>
</symbol>
</g>
<clipPath id="clip1">
  <path d="M 505.832031 154 L 538 154 L 538 155 L 505.832031 155 Z M 505.832031 154 "/>
</clipPath>
<clipPath id="clip2">
  <path d="M 512 149.371094 L 532 149.371094 L 532 164 L 512 164 Z M 512 149.371094 "/>
</clipPath>
<clipPath id="clip3">
  <path d="M 505.832031 163 L 538 163 L 538 165 L 505.832031 165 Z M 505.832031 163 "/>
</clipPath>
</defs>
<g id="surface189045">
<rect x="0" y="0" width="695" height="278" style="fill:rgb(100%,100%,100%);fill-opacity:1;stroke:none;"/>
<path style="fill-rule:nonzero;fill:rgb(100%,100%,100%);fill-opacity:1;stroke-width:0.5;stroke-linecap:round;stroke-linejoin:round;stroke:rgb(0%,0%,0%);stroke-opacity:1;stroke-miterlimit:10;" d="M 4.292969 44.660156 L 690.707031 44.660156 L 690.707031 273.707031 L 4.292969 273.707031 Z M 4.292969 44.660156 "/>
<path style="fill-rule:nonzero;fill:rgb(81.568627%,81.568627%,81.568627%);fill-opacity:1;stroke-width:0.5;stroke-linecap:round;stroke-linejoin:round;stroke:rgb(51.764706%,50.980392%,51.764706%);stroke-opacity:1;stroke-miterlimit:10;" d="M 62.984375 48.453125 L 480.996094 48.453125 L 480.996094 238.488281 L 62.984375 238.488281 Z M 62.984375 48.453125 "/>
<path style="fill:none;stroke-width:0.5;stroke-linecap:round;stroke-linejoin:round;stroke:rgb(0%,0%,0%);stroke-opacity:1;stroke-miterlimit:10;" d="M 62.984375 238.488281 L 480.996094 238.488281 M 62.984375 242.738281 L 62.984375 238.488281 M 146.585938 242.738281 L 146.585938 238.488281 M 230.191406 242.738281 L 230.191406 238.488281 M 313.792969 242.738281 L 313.792969 238.488281 M 397.394531 242.738281 L 397.394531 238.488281 M 480.996094 242.738281 L 480.996094 238.488281 "/>
<g style="fill:rgb(0%,0%,0%);fill-opacity:1;">
  <use xlink:href="#glyph0-1" x="60.191406" y="251.636719"/>
</g>
<g style="fill:rgb(0%,0%,0%);fill-opacity:1;">
  <use xlink:href="#glyph0-1" x="141.246094" y="251.636719"/>
  <use xlink:href="#glyph0-2" x="146.335938" y="251.636719"/>
</g>
<g style="fill:rgb(0%,0%,0%);fill-opacity:1;">
  <use xlink:href="#glyph0-1" x="222.304688" y="251.636719"/>
  <use xlink:href="#glyph0-2" x="227.394531" y="251.636719"/>
  <use xlink:href="#glyph0-2" x="232.484375" y="251.636719"/>
</g>
<g style="fill:rgb(0%,0%,0%);fill-opacity:1;">
  <use xlink:href="#glyph0-1" x="302.089844" y="251.636719"/>
  <use xlink:href="#glyph0-3" x="307.179688" y="251.636719"/>
  <use xlink:href="#glyph0-2" x="309.722656" y="251.636719"/>
  <use xlink:href="#glyph0-2" x="314.8125" y="251.636719"/>
  <use xlink:href="#glyph0-2" x="319.902344" y="251.636719"/>
</g>
<g style="fill:rgb(0%,0%,0%);fill-opacity:1;">
  <use xlink:href="#glyph0-1" x="383.148438" y="251.636719"/>
  <use xlink:href="#glyph0-2" x="388.238281" y="251.636719"/>
  <use xlink:href="#glyph0-3" x="393.328125" y="251.636719"/>
  <use xlink:href="#glyph0-2" x="395.871094" y="251.636719"/>
  <use xlink:href="#glyph0-2" x="400.960938" y="251.636719"/>
  <use xlink:href="#glyph0-2" x="406.050781" y="251.636719"/>
</g>
<g style="fill:rgb(0%,0%,0%);fill-opacity:1;">
  <use xlink:href="#glyph0-1" x="464.207031" y="251.636719"/>
  <use xlink:href="#glyph0-2" x="469.296875" y="251.636719"/>
  <use xlink:href="#glyph0-2" x="474.386719" y="251.636719"/>
  <use xlink:href="#glyph0-3" x="479.476562" y="251.636719"/>
  <use xlink:href="#glyph0-2" x="482.019531" y="251.636719"/>
  <use xlink:href="#glyph0-2" x="487.109375" y="251.636719"/>
  <use xlink:href="#glyph0-2" x="492.199219" y="251.636719"/>
</g>
<g style="fill:rgb(0%,0%,0%);fill-opacity:1;">
  <use xlink:href="#glyph1-1" x="207.710938" y="267.055664"/>
  <use xlink:href="#glyph1-2" x="214.058594" y="267.055664"/>
  <use xlink:href="#glyph1-3" x="220.210938" y="267.055664"/>
  <use xlink:href="#glyph1-4" x="226.558594" y="267.055664"/>
  <use xlink:href="#glyph1-2" x="236.299805" y="267.055664"/>
  <use xlink:href="#glyph1-5" x="242.452148" y="267.055664"/>
  <use xlink:href="#glyph1-6" x="248.790039" y="267.055664"/>
  <use xlink:href="#glyph1-7" x="252.710938" y="267.055664"/>
  <use xlink:href="#glyph1-8" x="255.889648" y="267.055664"/>
  <use xlink:href="#glyph1-9" x="261.099609" y="267.055664"/>
  <use xlink:href="#glyph1-10" x="263.87793" y="267.055664"/>
  <use xlink:href="#glyph1-2" x="269.126953" y="267.055664"/>
  <use xlink:href="#glyph1-7" x="275.279297" y="267.055664"/>
  <use xlink:href="#glyph1-9" x="278.458008" y="267.055664"/>
  <use xlink:href="#glyph1-5" x="281.236328" y="267.055664"/>
  <use xlink:href="#glyph1-7" x="287.574219" y="267.055664"/>
  <use xlink:href="#glyph1-11" x="290.75293" y="267.055664"/>
  <use xlink:href="#glyph1-9" x="296.543945" y="267.055664"/>
  <use xlink:href="#glyph1-12" x="299.322266" y="267.055664"/>
  <use xlink:href="#glyph1-13" x="302.100586" y="267.055664"/>
  <use xlink:href="#glyph1-14" x="308.21875" y="267.055664"/>
  <use xlink:href="#glyph1-15" x="314.566406" y="267.055664"/>
  <use xlink:href="#glyph1-6" x="320.484375" y="267.055664"/>
  <use xlink:href="#glyph1-2" x="324.405273" y="267.055664"/>
  <use xlink:href="#glyph1-8" x="330.557617" y="267.055664"/>
</g>
<path style="fill:none;stroke-width:0.5;stroke-linecap:round;stroke-linejoin:round;stroke:rgb(0%,0%,0%);stroke-opacity:1;stroke-miterlimit:10;" d="M 62.984375 238.488281 L 62.984375 48.453125 M 58.734375 238.488281 L 62.984375 238.488281 M 60.734375 227.628906 L 62.984375 227.628906 M 60.734375 216.769531 L 62.984375 216.769531 M 60.734375 205.910156 L 62.984375 205.910156 M 60.734375 195.050781 L 62.984375 195.050781 M 58.734375 184.191406 L 62.984375 184.191406 M 60.734375 173.332031 L 62.984375 173.332031 M 60.734375 162.476562 L 62.984375 162.476562 M 60.734375 151.617188 L 62.984375 151.617188 M 60.734375 140.757812 L 62.984375 140.757812 M 58.734375 129.898438 L 62.984375 129.898438 M 60.734375 119.039062 L 62.984375 119.039062 M 60.734375 108.179688 L 62.984375 108.179688 M 60.734375 97.320312 L 62.984375 97.320312 M 60.734375 86.460938 L 62.984375 86.460938 M 58.734375 75.601562 L 62.984375 75.601562 M 60.734375 64.742188 L 62.984375 64.742188 M 60.734375 53.882812 L 62.984375 53.882812 "/>
<g style="fill:rgb(0%,0%,0%);fill-opacity:1;">
  <use xlink:href="#glyph0-2" x="51.671875" y="241.007812"/>
</g>
<g style="fill:rgb(0%,0%,0%);fill-opacity:1;">
  <use xlink:href="#glyph0-1" x="36.402344" y="186.710938"/>
  <use xlink:href="#glyph0-2" x="41.492188" y="186.710938"/>
  <use xlink:href="#glyph0-2" x="46.582031" y="186.710938"/>
  <use xlink:href="#glyph0-2" x="51.671875" y="186.710938"/>
</g>
<g style="fill:rgb(0%,0%,0%);fill-opacity:1;">
  <use xlink:href="#glyph0-4" x="36.402344" y="132.417969"/>
  <use xlink:href="#glyph0-2" x="41.492188" y="132.417969"/>
  <use xlink:href="#glyph0-2" x="46.582031" y="132.417969"/>
  <use xlink:href="#glyph0-2" x="51.671875" y="132.417969"/>
</g>
<g style="fill:rgb(0%,0%,0%);fill-opacity:1;">
  <use xlink:href="#glyph0-5" x="36.402344" y="78.121094"/>
  <use xlink:href="#glyph0-2" x="41.492188" y="78.121094"/>
  <use xlink:href="#glyph0-2" x="46.582031" y="78.121094"/>
  <use xlink:href="#glyph0-2" x="51.671875" y="78.121094"/>
</g>
<g style="fill:rgb(0%,0%,0%);fill-opacity:1;">
  <use xlink:href="#glyph1-16" x="8.085938" y="146.68457"/>
  <use xlink:href="#glyph1-17" x="16.713867" y="146.68457"/>
  <use xlink:href="#glyph1-18" x="23.574219" y="146.68457"/>
  <use xlink:href="#glyph1-8" x="26.943359" y="146.68457"/>
</g>
<path style="fill:none;stroke-width:0.5;stroke-linecap:round;stroke-linejoin:round;stroke:rgb(0%,0%,50.196078%);stroke-opacity:1;stroke-dasharray:3,3;stroke-miterlimit:10;" d="M 113.320312 81.65625 L 188.820312 81.875 L 213.984375 82.339844 L 264.320312 82.101562 L 314.652344 82.144531 L 339.820312 81.882812 L 364.988281 81.800781 L 390.152344 82.65625 L 415.320312 82.671875 L 440.488281 82.246094 L 465.652344 81.417969 "/>
<path style="fill:none;stroke-width:0.5;stroke-linecap:round;stroke-linejoin:round;stroke:rgb(100%,0%,100%);stroke-opacity:1;stroke-dasharray:0,1;stroke-miterlimit:10;" d="M 113.320312 81.25 L 188.820312 81.214844 L 213.984375 81.660156 L 264.320312 81.515625 L 314.652344 81.402344 L 339.820312 81.386719 L 364.988281 81.4375 L 390.152344 82.175781 L 415.320312 82.300781 L 440.488281 82.332031 L 465.652344 82.339844 "/>
<path style="fill:none;stroke-width:0.2;stroke-linecap:square;stroke-linejoin:miter;stroke:rgb(0%,0%,50.196078%);stroke-opacity:1;stroke-miterlimit:10;" d="M 1.000589 0.999836 L -0.999411 -1.000164 M 1.000589 -1.000164 L -0.999411 0.999836 " transform="matrix(2.5,0,0,2.5,113.318841,81.65666)"/>
<path style="fill:none;stroke-width:0.2;stroke-linecap:square;stroke-linejoin:miter;stroke:rgb(0%,0%,50.196078%);stroke-opacity:1;stroke-miterlimit:10;" d="M 1.000433 0.999378 L -0.999567 -1.000622 M 1.000433 -1.000622 L -0.999567 0.999378 " transform="matrix(2.5,0,0,2.5,188.819231,81.876556)"/>
<path style="fill:none;stroke-width:0.2;stroke-linecap:square;stroke-linejoin:miter;stroke:rgb(0%,0%,50.196078%);stroke-opacity:1;stroke-miterlimit:10;" d="M 0.999339 0.999625 L -1.000661 -1.000375 M 0.999339 -1.000375 L -1.000661 0.999625 " transform="matrix(2.5,0,0,2.5,213.986028,82.340782)"/>
<path style="fill:none;stroke-width:0.2;stroke-linecap:square;stroke-linejoin:miter;stroke:rgb(0%,0%,50.196078%);stroke-opacity:1;stroke-miterlimit:10;" d="M 1.000276 0.999655 L -0.999724 -1.000345 M 1.000276 -1.000345 L -0.999724 0.999655 " transform="matrix(2.5,0,0,2.5,264.319621,82.102425)"/>
<path style="fill:none;stroke-width:0.2;stroke-linecap:square;stroke-linejoin:miter;stroke:rgb(0%,0%,50.196078%);stroke-opacity:1;stroke-miterlimit:10;" d="M 0.999652 1.000771 L -1.000348 -0.999229 M 0.999652 -0.999229 L -1.000348 1.000771 " transform="matrix(2.5,0,0,2.5,314.653215,82.142604)"/>
<path style="fill:none;stroke-width:0.2;stroke-linecap:square;stroke-linejoin:miter;stroke:rgb(0%,0%,50.196078%);stroke-opacity:1;stroke-miterlimit:10;" d="M 1.00012 0.999679 L -0.99988 -1.000321 M 1.00012 -1.000321 L -0.99988 0.999679 " transform="matrix(2.5,0,0,2.5,339.820012,81.883614)"/>
<path style="fill:none;stroke-width:0.2;stroke-linecap:square;stroke-linejoin:miter;stroke:rgb(0%,0%,50.196078%);stroke-opacity:1;stroke-miterlimit:10;" d="M 1.000589 1.000747 L -0.999411 -0.999253 M 1.000589 -0.999253 L -0.999411 1.000747 " transform="matrix(2.5,0,0,2.5,364.986808,81.798914)"/>
<path style="fill:none;stroke-width:0.2;stroke-linecap:square;stroke-linejoin:miter;stroke:rgb(0%,0%,50.196078%);stroke-opacity:1;stroke-miterlimit:10;" d="M 0.999495 1.000222 L -1.000505 -0.999778 M 0.999495 -0.999778 L -1.000505 1.000222 " transform="matrix(2.5,0,0,2.5,390.153605,82.655695)"/>
<path style="fill:none;stroke-width:0.2;stroke-linecap:square;stroke-linejoin:miter;stroke:rgb(0%,0%,50.196078%);stroke-opacity:1;stroke-miterlimit:10;" d="M 0.999964 0.999522 L -1.000036 -1.000478 M 0.999964 -1.000478 L -1.000036 0.999522 " transform="matrix(2.5,0,0,2.5,415.320402,82.67307)"/>
<path style="fill:none;stroke-width:0.2;stroke-linecap:square;stroke-linejoin:miter;stroke:rgb(0%,0%,50.196078%);stroke-opacity:1;stroke-miterlimit:10;" d="M 1.000433 0.999914 L -0.999567 -1.000086 M 1.000433 -1.000086 L -0.999567 0.999914 " transform="matrix(2.5,0,0,2.5,440.487199,82.246308)"/>
<path style="fill:none;stroke-width:0.2;stroke-linecap:square;stroke-linejoin:miter;stroke:rgb(0%,0%,50.196078%);stroke-opacity:1;stroke-miterlimit:10;" d="M 0.999339 1.000084 L -1.000661 -0.999916 M 0.999339 -0.999916 L -1.000661 1.000084 " transform="matrix(2.5,0,0,2.5,465.653996,81.41776)"/>
<path style="fill:none;stroke-width:0.2;stroke-linecap:square;stroke-linejoin:miter;stroke:rgb(100%,0%,100%);stroke-opacity:1;stroke-miterlimit:10;" d="M 1.000589 -0.000646403 L -0.999411 -0.000646403 M 0.000588775 0.999354 L 0.000588775 -1.000646 " transform="matrix(2.5,0,0,2.5,113.318841,81.251616)"/>
<path style="fill:none;stroke-width:0.2;stroke-linecap:square;stroke-linejoin:miter;stroke:rgb(100%,0%,100%);stroke-opacity:1;stroke-miterlimit:10;" d="M 1.000433 -0.000157735 L -0.999567 -0.000157735 M 0.00043263 0.999842 L 0.00043263 -1.000158 " transform="matrix(2.5,0,0,2.5,188.819231,81.215238)"/>
<path style="fill:none;stroke-width:0.2;stroke-linecap:square;stroke-linejoin:miter;stroke:rgb(100%,0%,100%);stroke-opacity:1;stroke-miterlimit:10;" d="M 0.999339 0.0000955274 L -1.000661 0.0000955274 M -0.000661086 1.000096 L -0.000661086 -0.999904 " transform="matrix(2.5,0,0,2.5,213.986028,81.659917)"/>
<path style="fill:none;stroke-width:0.2;stroke-linecap:square;stroke-linejoin:miter;stroke:rgb(100%,0%,100%);stroke-opacity:1;stroke-miterlimit:10;" d="M 1.000276 0.00070488 L -0.999724 0.00070488 M 0.000276484 1.000705 L 0.000276484 -0.999295 " transform="matrix(2.5,0,0,2.5,264.319621,81.513863)"/>
<path style="fill:none;stroke-width:0.2;stroke-linecap:square;stroke-linejoin:miter;stroke:rgb(100%,0%,100%);stroke-opacity:1;stroke-miterlimit:10;" d="M 0.999652 0.000566155 L -1.000348 0.000566155 M -0.000348447 1.000566 L -0.000348447 -0.999434 " transform="matrix(2.5,0,0,2.5,314.653215,81.400928)"/>
<path style="fill:none;stroke-width:0.2;stroke-linecap:square;stroke-linejoin:miter;stroke:rgb(100%,0%,100%);stroke-opacity:1;stroke-miterlimit:10;" d="M 1.00012 0.00039724 L -0.99988 0.00039724 M 0.000120338 1.000397 L 0.000120338 -0.999603 " transform="matrix(2.5,0,0,2.5,339.820012,81.385726)"/>
<path style="fill:none;stroke-width:0.2;stroke-linecap:square;stroke-linejoin:miter;stroke:rgb(100%,0%,100%);stroke-opacity:1;stroke-miterlimit:10;" d="M 1.000589 0.0000774869 L -0.999411 0.0000774869 M 0.000589123 1.000077 L 0.000589123 -0.999923 " transform="matrix(2.5,0,0,2.5,364.986808,81.437306)"/>
<path style="fill:none;stroke-width:0.2;stroke-linecap:square;stroke-linejoin:miter;stroke:rgb(100%,0%,100%);stroke-opacity:1;stroke-miterlimit:10;" d="M 0.999495 -0.000194182 L -1.000505 -0.000194182 M -0.000504592 0.999806 L -0.000504592 -1.000194 " transform="matrix(2.5,0,0,2.5,390.153605,82.176267)"/>
<path style="fill:none;stroke-width:0.2;stroke-linecap:square;stroke-linejoin:miter;stroke:rgb(100%,0%,100%);stroke-opacity:1;stroke-miterlimit:10;" d="M 0.999964 -0.000145952 L -1.000036 -0.000145952 M -0.0000358074 0.999854 L -0.0000358074 -1.000146 " transform="matrix(2.5,0,0,2.5,415.320402,82.301146)"/>
<path style="fill:none;stroke-width:0.2;stroke-linecap:square;stroke-linejoin:miter;stroke:rgb(100%,0%,100%);stroke-opacity:1;stroke-miterlimit:10;" d="M 1.000433 0.000409059 L -0.999567 0.000409059 M 0.000432977 1.000409 L 0.000432977 -0.999591 " transform="matrix(2.5,0,0,2.5,440.487199,82.331009)"/>
<path style="fill:none;stroke-width:0.2;stroke-linecap:square;stroke-linejoin:miter;stroke:rgb(100%,0%,100%);stroke-opacity:1;stroke-miterlimit:10;" d="M 0.999339 -0.000592391 L -1.000661 -0.000592391 M -0.000660738 0.999408 L -0.000660738 -1.000592 " transform="matrix(2.5,0,0,2.5,465.653996,82.341325)"/>
<g style="fill:rgb(0%,0%,0%);fill-opacity:1;">
  <use xlink:href="#glyph2-1" x="106.181145" y="89.225996"/>
  <use xlink:href="#glyph2-2" x="109.998528" y="89.225996"/>
  <use xlink:href="#glyph2-3" x="111.905755" y="89.225996"/>
  <use xlink:href="#glyph2-4" x="115.840325" y="89.225996"/>
</g>
<g style="fill:rgb(0%,0%,0%);fill-opacity:1;">
  <use xlink:href="#glyph2-5" x="179.772844" y="89.445892"/>
  <use xlink:href="#glyph2-6" x="183.590227" y="89.445892"/>
  <use xlink:href="#glyph2-2" x="187.40761" y="89.445892"/>
  <use xlink:href="#glyph2-3" x="189.314836" y="89.445892"/>
  <use xlink:href="#glyph2-4" x="193.249407" y="89.445892"/>
</g>
<g style="fill:rgb(0%,0%,0%);fill-opacity:1;">
  <use xlink:href="#glyph2-7" x="204.939641" y="89.910118"/>
  <use xlink:href="#glyph2-1" x="208.757024" y="89.910118"/>
  <use xlink:href="#glyph2-2" x="212.574407" y="89.910118"/>
  <use xlink:href="#glyph2-3" x="214.481633" y="89.910118"/>
  <use xlink:href="#glyph2-4" x="218.416203" y="89.910118"/>
</g>
<g style="fill:rgb(0%,0%,0%);fill-opacity:1;">
  <use xlink:href="#glyph2-6" x="253.364543" y="89.671761"/>
  <use xlink:href="#glyph2-8" x="257.181926" y="89.671761"/>
  <use xlink:href="#glyph2-7" x="260.999309" y="89.671761"/>
  <use xlink:href="#glyph2-2" x="264.816692" y="89.671761"/>
  <use xlink:href="#glyph2-3" x="266.723918" y="89.671761"/>
  <use xlink:href="#glyph2-4" x="270.658488" y="89.671761"/>
</g>
<g style="fill:rgb(0%,0%,0%);fill-opacity:1;">
  <use xlink:href="#glyph2-9" x="306.894426" y="89.711939"/>
  <use xlink:href="#glyph2-2" x="310.711809" y="89.711939"/>
  <use xlink:href="#glyph2-10" x="312.619035" y="89.711939"/>
  <use xlink:href="#glyph2-4" x="317.795793" y="89.711939"/>
</g>
<g style="fill:rgb(0%,0%,0%);fill-opacity:1;">
  <use xlink:href="#glyph2-6" x="332.061223" y="89.45295"/>
  <use xlink:href="#glyph2-2" x="335.878605" y="89.45295"/>
  <use xlink:href="#glyph2-10" x="337.785832" y="89.45295"/>
  <use xlink:href="#glyph2-4" x="342.96259" y="89.45295"/>
</g>
<g style="fill:rgb(0%,0%,0%);fill-opacity:1;">
  <use xlink:href="#glyph2-1" x="357.228019" y="89.36825"/>
  <use xlink:href="#glyph2-2" x="361.045402" y="89.36825"/>
  <use xlink:href="#glyph2-10" x="362.952629" y="89.36825"/>
  <use xlink:href="#glyph2-4" x="368.129387" y="89.36825"/>
</g>
<g style="fill:rgb(0%,0%,0%);fill-opacity:1;">
  <use xlink:href="#glyph2-11" x="382.394816" y="90.225031"/>
  <use xlink:href="#glyph2-2" x="386.212199" y="90.225031"/>
  <use xlink:href="#glyph2-10" x="388.119426" y="90.225031"/>
  <use xlink:href="#glyph2-4" x="393.296183" y="90.225031"/>
</g>
<g style="fill:rgb(0%,0%,0%);fill-opacity:1;">
  <use xlink:href="#glyph2-9" x="405.652922" y="90.242406"/>
  <use xlink:href="#glyph2-7" x="409.470304" y="90.242406"/>
  <use xlink:href="#glyph2-2" x="413.287687" y="90.242406"/>
  <use xlink:href="#glyph2-10" x="415.194914" y="90.242406"/>
  <use xlink:href="#glyph2-4" x="420.371672" y="90.242406"/>
</g>
<g style="fill:rgb(0%,0%,0%);fill-opacity:1;">
  <use xlink:href="#glyph2-5" x="430.819718" y="89.815644"/>
  <use xlink:href="#glyph2-6" x="434.637101" y="89.815644"/>
  <use xlink:href="#glyph2-2" x="438.454484" y="89.815644"/>
  <use xlink:href="#glyph2-10" x="440.361711" y="89.815644"/>
  <use xlink:href="#glyph2-4" x="445.538468" y="89.815644"/>
</g>
<g style="fill:rgb(0%,0%,0%);fill-opacity:1;">
  <use xlink:href="#glyph2-7" x="455.986515" y="88.987096"/>
  <use xlink:href="#glyph2-1" x="459.803898" y="88.987096"/>
  <use xlink:href="#glyph2-2" x="463.621281" y="88.987096"/>
  <use xlink:href="#glyph2-10" x="465.528507" y="88.987096"/>
  <use xlink:href="#glyph2-4" x="470.705265" y="88.987096"/>
</g>
<path style="fill-rule:nonzero;fill:rgb(100%,100%,100%);fill-opacity:1;stroke-width:0.5;stroke-linecap:round;stroke-linejoin:miter;stroke:rgb(0%,0%,0%);stroke-opacity:1;stroke-miterlimit:10;" d="M 502.039062 145.578125 L 686.664062 145.578125 L 686.664062 172.789062 L 502.039062 172.789062 Z M 502.039062 145.578125 "/>
<g clip-path="url(#clip1)" clip-rule="nonzero">
<path style="fill:none;stroke-width:0.5;stroke-linecap:round;stroke-linejoin:miter;stroke:rgb(0%,0%,50.196078%);stroke-opacity:1;stroke-dasharray:3,3;stroke-miterlimit:10;" d="M 506.082031 154.277344 L 537.582031 154.277344 "/>
</g>
<g clip-path="url(#clip2)" clip-rule="nonzero">
<path style="fill:none;stroke-width:0.2;stroke-linecap:square;stroke-linejoin:miter;stroke:rgb(0%,0%,50.196078%);stroke-opacity:1;stroke-miterlimit:10;" d="M 1.000406 0.999865 L -0.999594 -1.000135 M 1.000406 -1.000135 L -0.999594 0.999865 " transform="matrix(2.5,0,0,2.5,521.831016,154.277682)"/>
</g>
<g style="fill:rgb(0%,0%,0%);fill-opacity:1;">
  <use xlink:href="#glyph0-6" x="541.832031" y="156.796875"/>
  <use xlink:href="#glyph0-7" x="547.128906" y="156.796875"/>
  <use xlink:href="#glyph0-8" x="549.351562" y="156.796875"/>
  <use xlink:href="#glyph0-9" x="552.640625" y="156.796875"/>
  <use xlink:href="#glyph0-10" x="555.777344" y="156.796875"/>
  <use xlink:href="#glyph0-11" x="560.847656" y="156.796875"/>
  <use xlink:href="#glyph0-12" x="565.75" y="156.796875"/>
  <use xlink:href="#glyph0-7" x="567.972656" y="156.796875"/>
  <use xlink:href="#glyph0-13" x="570.195312" y="156.796875"/>
  <use xlink:href="#glyph0-14" x="574.394531" y="156.796875"/>
  <use xlink:href="#glyph0-15" x="579.316406" y="156.796875"/>
  <use xlink:href="#glyph0-3" x="584.394531" y="156.796875"/>
  <use xlink:href="#glyph0-16" x="586.9375" y="156.796875"/>
  <use xlink:href="#glyph0-17" x="590.058594" y="156.796875"/>
  <use xlink:href="#glyph0-10" x="595.136719" y="156.796875"/>
  <use xlink:href="#glyph0-14" x="600.207031" y="156.796875"/>
  <use xlink:href="#glyph0-18" x="605.128906" y="156.796875"/>
  <use xlink:href="#glyph0-9" x="609.296875" y="156.796875"/>
  <use xlink:href="#glyph0-3" x="612.433594" y="156.796875"/>
  <use xlink:href="#glyph0-9" x="614.976562" y="156.796875"/>
  <use xlink:href="#glyph0-19" x="618.113281" y="156.796875"/>
  <use xlink:href="#glyph0-3" x="623.007812" y="156.796875"/>
  <use xlink:href="#glyph0-8" x="625.550781" y="156.796875"/>
  <use xlink:href="#glyph0-14" x="628.664062" y="156.796875"/>
  <use xlink:href="#glyph0-20" x="633.585938" y="156.796875"/>
  <use xlink:href="#glyph0-19" x="641.378906" y="156.796875"/>
  <use xlink:href="#glyph0-9" x="646.273438" y="156.796875"/>
  <use xlink:href="#glyph0-14" x="649.410156" y="156.796875"/>
  <use xlink:href="#glyph0-3" x="654.332031" y="156.796875"/>
  <use xlink:href="#glyph0-17" x="656.875" y="156.796875"/>
  <use xlink:href="#glyph0-10" x="661.953125" y="156.796875"/>
  <use xlink:href="#glyph0-14" x="667.023438" y="156.796875"/>
  <use xlink:href="#glyph0-18" x="671.945312" y="156.796875"/>
  <use xlink:href="#glyph0-9" x="676.113281" y="156.796875"/>
  <use xlink:href="#glyph0-21" x="679.25" y="156.796875"/>
</g>
<g clip-path="url(#clip3)" clip-rule="nonzero">
<path style="fill:none;stroke-width:0.5;stroke-linecap:round;stroke-linejoin:miter;stroke:rgb(100%,0%,100%);stroke-opacity:1;stroke-dasharray:0,1;stroke-miterlimit:10;" d="M 506.082031 164.089844 L 537.582031 164.089844 "/>
</g>
<path style="fill:none;stroke-width:0.2;stroke-linecap:square;stroke-linejoin:miter;stroke:rgb(100%,0%,100%);stroke-opacity:1;stroke-miterlimit:10;" d="M 1.000406 -0.000135335 L -0.999594 -0.000135335 M 0.000406004 0.999865 L 0.000406004 -1.000135 " transform="matrix(2.5,0,0,2.5,521.831016,164.090182)"/>
<g style="fill:rgb(0%,0%,0%);fill-opacity:1;">
  <use xlink:href="#glyph0-22" x="541.832031" y="166.609375"/>
  <use xlink:href="#glyph0-11" x="547.816406" y="166.609375"/>
  <use xlink:href="#glyph0-9" x="552.71875" y="166.609375"/>
  <use xlink:href="#glyph0-7" x="555.855469" y="166.609375"/>
  <use xlink:href="#glyph0-23" x="558.078125" y="166.609375"/>
  <use xlink:href="#glyph0-14" x="562.8125" y="166.609375"/>
  <use xlink:href="#glyph0-3" x="567.734375" y="166.609375"/>
  <use xlink:href="#glyph0-16" x="570.277344" y="166.609375"/>
  <use xlink:href="#glyph0-24" x="573.398438" y="166.609375"/>
  <use xlink:href="#glyph0-19" x="578.46875" y="166.609375"/>
  <use xlink:href="#glyph0-18" x="583.363281" y="166.609375"/>
  <use xlink:href="#glyph0-9" x="587.53125" y="166.609375"/>
  <use xlink:href="#glyph0-3" x="590.667969" y="166.609375"/>
  <use xlink:href="#glyph0-9" x="593.210938" y="166.609375"/>
  <use xlink:href="#glyph0-19" x="596.347656" y="166.609375"/>
  <use xlink:href="#glyph0-3" x="601.242188" y="166.609375"/>
  <use xlink:href="#glyph0-8" x="603.785156" y="166.609375"/>
  <use xlink:href="#glyph0-14" x="606.898438" y="166.609375"/>
  <use xlink:href="#glyph0-20" x="611.820312" y="166.609375"/>
  <use xlink:href="#glyph0-19" x="619.613281" y="166.609375"/>
  <use xlink:href="#glyph0-9" x="624.507812" y="166.609375"/>
  <use xlink:href="#glyph0-14" x="627.644531" y="166.609375"/>
  <use xlink:href="#glyph0-3" x="632.566406" y="166.609375"/>
  <use xlink:href="#glyph0-24" x="635.109375" y="166.609375"/>
  <use xlink:href="#glyph0-19" x="640.179688" y="166.609375"/>
  <use xlink:href="#glyph0-18" x="645.074219" y="166.609375"/>
  <use xlink:href="#glyph0-9" x="649.242188" y="166.609375"/>
  <use xlink:href="#glyph0-21" x="652.378906" y="166.609375"/>
</g>
<g style="fill:rgb(0%,0%,0%);fill-opacity:1;">
  <use xlink:href="#glyph1-19" x="254.003906" y="13.325195"/>
  <use xlink:href="#glyph1-2" x="260.50293" y="13.325195"/>
  <use xlink:href="#glyph1-4" x="266.655273" y="13.325195"/>
  <use xlink:href="#glyph1-13" x="276.396484" y="13.325195"/>
  <use xlink:href="#glyph1-6" x="282.514648" y="13.325195"/>
  <use xlink:href="#glyph1-2" x="286.435547" y="13.325195"/>
  <use xlink:href="#glyph1-7" x="292.587891" y="13.325195"/>
  <use xlink:href="#glyph1-8" x="295.766602" y="13.325195"/>
  <use xlink:href="#glyph1-2" x="300.976562" y="13.325195"/>
  <use xlink:href="#glyph1-3" x="307.128906" y="13.325195"/>
  <use xlink:href="#glyph1-4" x="313.476562" y="13.325195"/>
  <use xlink:href="#glyph1-2" x="323.217773" y="13.325195"/>
  <use xlink:href="#glyph1-5" x="329.370117" y="13.325195"/>
  <use xlink:href="#glyph1-6" x="335.708008" y="13.325195"/>
  <use xlink:href="#glyph1-7" x="339.628906" y="13.325195"/>
  <use xlink:href="#glyph1-4" x="342.807617" y="13.325195"/>
  <use xlink:href="#glyph1-2" x="352.548828" y="13.325195"/>
  <use xlink:href="#glyph1-4" x="358.701172" y="13.325195"/>
  <use xlink:href="#glyph1-13" x="368.442383" y="13.325195"/>
  <use xlink:href="#glyph1-20" x="374.560547" y="13.325195"/>
  <use xlink:href="#glyph1-15" x="378.671875" y="13.325195"/>
  <use xlink:href="#glyph1-7" x="384.589844" y="13.325195"/>
  <use xlink:href="#glyph1-14" x="387.768555" y="13.325195"/>
  <use xlink:href="#glyph1-21" x="394.116211" y="13.325195"/>
  <use xlink:href="#glyph1-5" x="400.244141" y="13.325195"/>
  <use xlink:href="#glyph1-22" x="406.582031" y="13.325195"/>
  <use xlink:href="#glyph1-23" x="412.929688" y="13.325195"/>
  <use xlink:href="#glyph1-9" x="421.108398" y="13.325195"/>
  <use xlink:href="#glyph1-22" x="423.886719" y="13.325195"/>
  <use xlink:href="#glyph1-6" x="430.234375" y="13.325195"/>
  <use xlink:href="#glyph1-24" x="434.155273" y="13.325195"/>
</g>
<path style=" stroke:none;fill-rule:nonzero;fill:rgb(100%,100%,100%);fill-opacity:1;" d="M 269.558594 20.183594 L 425.441406 20.183594 L 425.441406 40.410156 L 269.558594 40.410156 Z M 269.558594 20.183594 "/>
<g style="fill:rgb(0%,0%,0%);fill-opacity:1;">
  <use xlink:href="#glyph1-1" x="273.601562" y="33.508789"/>
  <use xlink:href="#glyph1-25" x="279.949219" y="33.508789"/>
  <use xlink:href="#glyph1-9" x="285.447266" y="33.508789"/>
  <use xlink:href="#glyph1-14" x="288.225586" y="33.508789"/>
  <use xlink:href="#glyph1-2" x="294.573242" y="33.508789"/>
  <use xlink:href="#glyph1-5" x="300.725586" y="33.508789"/>
  <use xlink:href="#glyph1-25" x="307.063477" y="33.508789"/>
  <use xlink:href="#glyph1-24" x="312.561523" y="33.508789"/>
  <use xlink:href="#glyph1-7" x="318.899414" y="33.508789"/>
  <use xlink:href="#glyph1-25" x="322.078125" y="33.508789"/>
  <use xlink:href="#glyph1-13" x="327.576172" y="33.508789"/>
  <use xlink:href="#glyph1-26" x="333.694336" y="33.508789"/>
  <use xlink:href="#glyph1-15" x="340.041992" y="33.508789"/>
  <use xlink:href="#glyph1-4" x="345.959961" y="33.508789"/>
  <use xlink:href="#glyph1-13" x="355.701172" y="33.508789"/>
  <use xlink:href="#glyph1-22" x="361.819336" y="33.508789"/>
  <use xlink:href="#glyph1-2" x="368.166992" y="33.508789"/>
  <use xlink:href="#glyph1-7" x="374.319336" y="33.508789"/>
  <use xlink:href="#glyph1-4" x="377.498047" y="33.508789"/>
  <use xlink:href="#glyph1-2" x="387.239258" y="33.508789"/>
  <use xlink:href="#glyph1-4" x="393.391602" y="33.508789"/>
  <use xlink:href="#glyph1-25" x="403.132812" y="33.508789"/>
  <use xlink:href="#glyph1-26" x="408.630859" y="33.508789"/>
  <use xlink:href="#glyph1-15" x="414.978516" y="33.508789"/>
</g>
</g>
</svg>
