\relax 
\providecommand\hyper@newdestlabel[2]{}
\@writefile{toc}{\contentsline {chapter}{\numberline {6}Conclusion}{79}{chapter.6}}
\@writefile{lof}{\addvspace {10\p@ }}
\@writefile{lot}{\addvspace {10\p@ }}
\newlabel{chap:concl}{{6}{79}{Conclusion}{chapter.6}{}}
\@writefile{toc}{\contentsline {section}{\numberline {6.1}Summary}{79}{section.6.1}}
\@writefile{toc}{\contentsline {section}{\numberline {6.2}Main Contributions}{80}{section.6.2}}
\@writefile{toc}{\contentsline {section}{\numberline {6.3}Future work}{80}{section.6.3}}
\@setckpt{concl}{
\setcounter{page}{82}
\setcounter{equation}{0}
\setcounter{enumi}{0}
\setcounter{enumii}{0}
\setcounter{enumiii}{0}
\setcounter{enumiv}{0}
\setcounter{footnote}{0}
\setcounter{mpfootnote}{0}
\setcounter{part}{0}
\setcounter{chapter}{6}
\setcounter{section}{3}
\setcounter{subsection}{0}
\setcounter{subsubsection}{0}
\setcounter{paragraph}{0}
\setcounter{subparagraph}{0}
\setcounter{figure}{0}
\setcounter{table}{0}
\setcounter{LT@tables}{0}
\setcounter{LT@chunks}{0}
\setcounter{parentequation}{0}
\setcounter{subfigure}{0}
\setcounter{lofdepth}{1}
\setcounter{subtable}{0}
\setcounter{lotdepth}{1}
\setcounter{Item}{0}
\setcounter{Hfootnote}{24}
\setcounter{bookmark@seq@number}{77}
\setcounter{lstnumber}{2}
\setcounter{IfiF@cur@year}{2017}
\setcounter{IfiF@cur@month}{2}
\setcounter{section@level}{1}
\setcounter{lstlisting}{0}
}
