\relax 
\providecommand\hyper@newdestlabel[2]{}
\@writefile{toc}{\contentsline {chapter}{\numberline {3}Design}{29}{chapter.3}}
\@writefile{lof}{\addvspace {10\p@ }}
\@writefile{lot}{\addvspace {10\p@ }}
\newlabel{chap:design}{{3}{29}{Design}{chapter.3}{}}
\@writefile{toc}{\contentsline {section}{\numberline {3.1}Design goals}{29}{section.3.1}}
\citation{QCKX-2008}
\@writefile{toc}{\contentsline {section}{\numberline {3.2}Choice of hypervisor}{30}{section.3.2}}
\@writefile{toc}{\contentsline {subsection}{\numberline {3.2.1}Performance comparison}{30}{subsection.3.2.1}}
\citation{MAYO-CLIN}
\citation{CDG-TH}
\citation{GPU-PASS}
\citation{GPU-PASS}
\@writefile{toc}{\contentsline {subsection}{\numberline {3.2.2}Hypervisor environment}{31}{subsection.3.2.2}}
\@writefile{toc}{\contentsline {subsection}{\numberline {3.2.3}Features comparison}{31}{subsection.3.2.3}}
\@writefile{toc}{\contentsline {section}{\numberline {3.3}Exploring different designs}{32}{section.3.3}}
\newlabel{exploring_designs}{{3.3}{32}{Exploring different designs}{section.3.3}{}}
\@writefile{toc}{\contentsline {subsection}{\numberline {3.3.1}Passthrough}{32}{subsection.3.3.1}}
\@writefile{toc}{\contentsline {subsection}{\numberline {3.3.2}Virtio}{32}{subsection.3.3.2}}
\@writefile{toc}{\contentsline {subsection}{\numberline {3.3.3}Custom virtual device}{33}{subsection.3.3.3}}
\@writefile{lof}{\contentsline {figure}{\numberline {3.1}{\ignorespaces Device BARs backed by SISCI segment memory}}{33}{figure.3.1}}
\newlabel{figure:QVD}{{3.1}{33}{Device BARs backed by SISCI segment memory}{figure.3.1}{}}
\@writefile{toc}{\contentsline {section}{\numberline {3.4}Architecture}{35}{section.3.4}}
\@writefile{lof}{\contentsline {figure}{\numberline {3.2}{\ignorespaces Architecture of our design proposal}}{36}{figure.3.2}}
\newlabel{figure:architecture}{{3.2}{36}{Architecture of our design proposal}{figure.3.2}{}}
\@writefile{toc}{\contentsline {subsection}{\numberline {3.4.1}Qemu virtual device}{36}{subsection.3.4.1}}
\newlabel{design:QVD}{{3.4.1}{36}{Qemu virtual device}{subsection.3.4.1}{}}
\@writefile{toc}{\contentsline {subsection}{\numberline {3.4.2}Communication channel}{37}{subsection.3.4.2}}
\newlabel{design:COMM}{{3.4.2}{37}{Communication channel}{subsection.3.4.2}{}}
\@writefile{toc}{\contentsline {subsection}{\numberline {3.4.3}Guest driver}{37}{subsection.3.4.3}}
\newlabel{design:GD}{{3.4.3}{37}{Guest driver}{subsection.3.4.3}{}}
\@writefile{toc}{\contentsline {subsection}{\numberline {3.4.4}Modified SISIC API}{38}{subsection.3.4.4}}
\newlabel{design:MOD_SISCI}{{3.4.4}{38}{Modified SISIC API}{subsection.3.4.4}{}}
\@writefile{toc}{\contentsline {subsection}{\numberline {3.4.5}Discussion}{38}{subsection.3.4.5}}
\@writefile{toc}{\contentsline {section}{\numberline {3.5}Summary}{39}{section.3.5}}
\@setckpt{design}{
\setcounter{page}{40}
\setcounter{equation}{0}
\setcounter{enumi}{0}
\setcounter{enumii}{0}
\setcounter{enumiii}{0}
\setcounter{enumiv}{0}
\setcounter{footnote}{3}
\setcounter{mpfootnote}{0}
\setcounter{part}{0}
\setcounter{chapter}{3}
\setcounter{section}{5}
\setcounter{subsection}{0}
\setcounter{subsubsection}{0}
\setcounter{paragraph}{0}
\setcounter{subparagraph}{0}
\setcounter{figure}{2}
\setcounter{table}{0}
\setcounter{LT@tables}{0}
\setcounter{LT@chunks}{0}
\setcounter{parentequation}{0}
\setcounter{subfigure}{0}
\setcounter{lofdepth}{1}
\setcounter{subtable}{0}
\setcounter{lotdepth}{1}
\setcounter{Item}{0}
\setcounter{Hfootnote}{11}
\setcounter{bookmark@seq@number}{45}
\setcounter{lstnumber}{2}
\setcounter{IfiF@cur@year}{2017}
\setcounter{IfiF@cur@month}{2}
\setcounter{section@level}{1}
\setcounter{lstlisting}{0}
}
