\relax 
\providecommand\hyper@newdestlabel[2]{}
\@writefile{toc}{\contentsline {chapter}{\numberline {5}Evaluation and Discussion}{65}{chapter.5}}
\@writefile{lof}{\addvspace {10\p@ }}
\@writefile{lot}{\addvspace {10\p@ }}
\newlabel{chap:eval}{{5}{65}{Evaluation and Discussion}{chapter.5}{}}
\@writefile{toc}{\contentsline {section}{\numberline {5.1}Evaluation environment}{65}{section.5.1}}
\@writefile{lof}{\contentsline {figure}{\numberline {5.1}{\ignorespaces Overview of our test setup}}{66}{figure.5.1}}
\newlabel{figure:test_setup}{{5.1}{66}{Overview of our test setup}{figure.5.1}{}}
\@writefile{toc}{\contentsline {section}{\numberline {5.2}Correctness}{66}{section.5.2}}
\newlabel{eval:correctness}{{5.2}{66}{Correctness}{section.5.2}{}}
\@writefile{toc}{\contentsline {section}{\numberline {5.3}Performance}{66}{section.5.3}}
\newlabel{eval:performance}{{5.3}{66}{Performance}{section.5.3}{}}
\@writefile{toc}{\contentsline {subsection}{\numberline {5.3.1}Memory bandwidth}{67}{subsection.5.3.1}}
\newlabel{scibench2}{{5.3.1}{67}{}{lstlisting.5.-19}{}}
\citation{Drepper}
\@writefile{lof}{\contentsline {figure}{\numberline {5.2}{\ignorespaces Native memory bandwidth in our main test machine}}{68}{figure.5.2}}
\newlabel{graph:native_bandwidth}{{5.2}{68}{Native memory bandwidth in our main test machine}{figure.5.2}{}}
\@writefile{lot}{\contentsline {table}{\numberline {5.1}{\ignorespaces Native memory bandwidth results (MB/s)}}{68}{table.5.1}}
\newlabel{table:native_bandwidth}{{5.1}{68}{Native memory bandwidth results (MB/s)}{table.5.1}{}}
\@writefile{lof}{\contentsline {figure}{\numberline {5.3}{\ignorespaces Guest to local host bandwidth}}{69}{figure.5.3}}
\newlabel{graph:loopback_bandwidth}{{5.3}{69}{Guest to local host bandwidth}{figure.5.3}{}}
\@writefile{lot}{\contentsline {table}{\numberline {5.2}{\ignorespaces Guest to local host bandwidth results (MB/s)}}{70}{table.5.2}}
\newlabel{table:loopback_bandwidth}{{5.2}{70}{Guest to local host bandwidth results (MB/s)}{table.5.2}{}}
\@writefile{lof}{\contentsline {figure}{\numberline {5.4}{\ignorespaces Guest to co-located guest bandwidth}}{70}{figure.5.4}}
\newlabel{graph:localGuest_to_localGuest}{{5.4}{70}{Guest to co-located guest bandwidth}{figure.5.4}{}}
\@writefile{lot}{\contentsline {table}{\numberline {5.3}{\ignorespaces Guest to co-located guest bandwidth results (MB/s)}}{71}{table.5.3}}
\newlabel{table:localGuest_to_localGuest}{{5.3}{71}{Guest to co-located guest bandwidth results (MB/s)}{table.5.3}{}}
\@writefile{lof}{\contentsline {figure}{\numberline {5.5}{\ignorespaces Guest to remote guest memory bandwidth}}{71}{figure.5.5}}
\newlabel{graph:remote_bandwidth}{{5.5}{71}{Guest to remote guest memory bandwidth}{figure.5.5}{}}
\@writefile{lot}{\contentsline {table}{\numberline {5.4}{\ignorespaces Guest to remote guest memory bandwidth results (MB/s)}}{72}{table.5.4}}
\newlabel{table:remote_bandwidth}{{5.4}{72}{Guest to remote guest memory bandwidth results (MB/s)}{table.5.4}{}}
\@writefile{lof}{\contentsline {figure}{\numberline {5.6}{\ignorespaces PXH830 guest to remote guest bandwidth}}{72}{figure.5.6}}
\newlabel{graph:remote_bandwidth_pxh}{{5.6}{72}{PXH830 guest to remote guest bandwidth}{figure.5.6}{}}
\@writefile{lot}{\contentsline {table}{\numberline {5.5}{\ignorespaces PXH830 guest to remote guest bandwidth (MB/s)}}{72}{table.5.5}}
\newlabel{table:remote_bandwidth_pxh}{{5.5}{72}{PXH830 guest to remote guest bandwidth (MB/s)}{table.5.5}{}}
\citation{INTEL_MAN2}
\citation{INTEL_PPT}
\@writefile{toc}{\contentsline {subsection}{\numberline {5.3.2}Memory latency}{73}{subsection.5.3.2}}
\newlabel{scipp}{{5.3.2}{73}{}{lstlisting.5.-20}{}}
\@writefile{lot}{\contentsline {table}{\numberline {5.6}{\ignorespaces Remote memory latency results (\IeC {\textmu }s)}}{73}{table.5.6}}
\newlabel{table:remote_latency}{{5.6}{73}{Remote memory latency results (µs)}{table.5.6}{}}
\@writefile{lof}{\contentsline {figure}{\numberline {5.7}{\ignorespaces Remote memory latency}}{74}{figure.5.7}}
\newlabel{graph:remote_latency}{{5.7}{74}{Remote memory latency}{figure.5.7}{}}
\@writefile{toc}{\contentsline {subsection}{\numberline {5.3.3}Interrupt latency}{74}{subsection.5.3.3}}
\newlabel{eval:intr}{{5.3.3}{74}{Interrupt latency}{subsection.5.3.3}{}}
\newlabel{intr_bench}{{5.3.3}{74}{}{lstlisting.5.-21}{}}
\@writefile{lof}{\contentsline {figure}{\numberline {5.8}{\ignorespaces Interrupt latency overview}}{75}{figure.5.8}}
\newlabel{graph:interrupt_latency}{{5.8}{75}{Interrupt latency overview}{figure.5.8}{}}
\@writefile{lot}{\contentsline {table}{\numberline {5.7}{\ignorespaces Interrupt latency results (\IeC {\textmu }s)}}{75}{table.5.7}}
\newlabel{table:interrupt_latency}{{5.7}{75}{Interrupt latency results (µs)}{table.5.7}{}}
\@writefile{toc}{\contentsline {section}{\numberline {5.4}Security}{76}{section.5.4}}
\@writefile{toc}{\contentsline {section}{\numberline {5.5}Discussion}{77}{section.5.5}}
\newlabel{eval:disc}{{5.5}{77}{Discussion}{section.5.5}{}}
\@setckpt{eval}{
\setcounter{page}{79}
\setcounter{equation}{0}
\setcounter{enumi}{0}
\setcounter{enumii}{0}
\setcounter{enumiii}{0}
\setcounter{enumiv}{0}
\setcounter{footnote}{5}
\setcounter{mpfootnote}{0}
\setcounter{part}{0}
\setcounter{chapter}{5}
\setcounter{section}{5}
\setcounter{subsection}{0}
\setcounter{subsubsection}{0}
\setcounter{paragraph}{0}
\setcounter{subparagraph}{0}
\setcounter{figure}{8}
\setcounter{table}{7}
\setcounter{LT@tables}{0}
\setcounter{LT@chunks}{0}
\setcounter{parentequation}{0}
\setcounter{subfigure}{0}
\setcounter{lofdepth}{1}
\setcounter{subtable}{0}
\setcounter{lotdepth}{1}
\setcounter{Item}{0}
\setcounter{Hfootnote}{24}
\setcounter{bookmark@seq@number}{73}
\setcounter{lstnumber}{2}
\setcounter{IfiF@cur@year}{2017}
\setcounter{IfiF@cur@month}{2}
\setcounter{section@level}{1}
\setcounter{lstlisting}{0}
}
