\relax 
\providecommand\hyper@newdestlabel[2]{}
\@writefile{toc}{\contentsline {chapter}{\numberline {4}Implementation}{41}{chapter.4}}
\@writefile{lof}{\addvspace {10\p@ }}
\@writefile{lot}{\addvspace {10\p@ }}
\newlabel{chap:impl}{{4}{41}{Implementation}{chapter.4}{}}
\@writefile{toc}{\contentsline {section}{\numberline {4.1}Qemu virtual device}{41}{section.4.1}}
\newlabel{QemuVirtualDevice}{{4.1}{41}{Qemu virtual device}{section.4.1}{}}
\newlabel{code:typeinfo}{{4.1}{42}{The TypeInfo data structure}{lstlisting.4.1}{}}
\@writefile{lol}{\contentsline {lstlisting}{\numberline {4.1}The TypeInfo data structure}{42}{lstlisting.4.1}}
\newlabel{code:siscivm_class_init}{{4.2}{42}{Overriding the default Qemu PCI class functions}{lstlisting.4.2}{}}
\@writefile{lol}{\contentsline {lstlisting}{\numberline {4.2}Overriding the default Qemu PCI class functions}{42}{lstlisting.4.2}}
\newlabel{code:device_props}{{4.3}{43}{Setting device properties when starting Qemu}{lstlisting.4.3}{}}
\@writefile{lol}{\contentsline {lstlisting}{\numberline {4.3}Setting device properties when starting Qemu}{43}{lstlisting.4.3}}
\@writefile{toc}{\contentsline {subsection}{\numberline {4.1.1}Mapping SISCI memory into device BARs}{43}{subsection.4.1.1}}
\newlabel{HostMapping}{{4.1.1}{43}{Mapping SISCI memory into device BARs}{subsection.4.1.1}{}}
\@writefile{toc}{\contentsline {subsection}{\numberline {4.1.2}BAR structure}{44}{subsection.4.1.2}}
\newlabel{HostBarStructure}{{4.1.2}{44}{BAR structure}{subsection.4.1.2}{}}
\citation{Qemu_mem_api}
\newlabel{code:mreg_init}{{4.4}{45}{Initializing and registering the container for BAR2}{lstlisting.4.4}{}}
\@writefile{lol}{\contentsline {lstlisting}{\numberline {4.4}Initializing and registering the container for BAR2}{45}{lstlisting.4.4}}
\newlabel{code:add_subreg}{{4.5}{45}{Adding a subregion to the BAR2 container}{lstlisting.4.5}{}}
\@writefile{lol}{\contentsline {lstlisting}{\numberline {4.5}Adding a subregion to the BAR2 container}{45}{lstlisting.4.5}}
\@writefile{toc}{\contentsline {subsection}{\numberline {4.1.3}Unmapping SISCI memory from device BARs}{45}{subsection.4.1.3}}
\newlabel{HostUnmapping}{{4.1.3}{45}{Unmapping SISCI memory from device BARs}{subsection.4.1.3}{}}
\@writefile{lof}{\contentsline {figure}{\numberline {4.1}{\ignorespaces Overview of our device's BARs}}{46}{figure.4.1}}
\newlabel{figure:BARs}{{4.1}{46}{Overview of our device's BARs}{figure.4.1}{}}
\@writefile{toc}{\contentsline {subsection}{\numberline {4.1.4}Interrupts}{47}{subsection.4.1.4}}
\newlabel{HostInterrupts}{{4.1.4}{47}{Interrupts}{subsection.4.1.4}{}}
\newlabel{code:create_intcb}{{4.6}{48}{Creating a SISCI interrupt with a callback}{lstlisting.4.6}{}}
\@writefile{lol}{\contentsline {lstlisting}{\numberline {4.6}Creating a SISCI interrupt with a callback}{48}{lstlisting.4.6}}
\newlabel{code:intcb_func}{{4.7}{49}{The host function invoked when a SISCI interrupt is triggered}{lstlisting.4.7}{}}
\@writefile{lol}{\contentsline {lstlisting}{\numberline {4.7}The host function invoked when a SISCI interrupt is triggered}{49}{lstlisting.4.7}}
\@writefile{toc}{\contentsline {subsection}{\numberline {4.1.5}Managing SISCI descriptors and resources in the host}{49}{subsection.4.1.5}}
\newlabel{HostMinors}{{4.1.5}{49}{Managing SISCI descriptors and resources in the host}{subsection.4.1.5}{}}
\newlabel{code:sisci_desc_t}{{4.8}{50}{Host structure for handling descriptors and associated resources}{lstlisting.4.8}{}}
\@writefile{lol}{\contentsline {lstlisting}{\numberline {4.8}Host structure for handling descriptors and associated resources}{50}{lstlisting.4.8}}
\@writefile{toc}{\contentsline {section}{\numberline {4.2}Guest to host communication channel}{50}{section.4.2}}
\newlabel{CommChan}{{4.2}{50}{Guest to host communication channel}{section.4.2}{}}
\@writefile{lof}{\contentsline {figure}{\numberline {4.2}{\ignorespaces Overview of guest to host communication}}{51}{figure.4.2}}
\newlabel{figure:comm}{{4.2}{51}{Overview of guest to host communication}{figure.4.2}{}}
\@writefile{toc}{\contentsline {subsection}{\numberline {4.2.1}Host side of communication}{51}{subsection.4.2.1}}
\newlabel{HostComm}{{4.2.1}{51}{Host side of communication}{subsection.4.2.1}{}}
\newlabel{code:comm_chan_req_handling}{{4.9}{53}{Handling a request from the guest}{lstlisting.4.9}{}}
\@writefile{lol}{\contentsline {lstlisting}{\numberline {4.9}Handling a request from the guest}{53}{lstlisting.4.9}}
\@writefile{toc}{\contentsline {subsection}{\numberline {4.2.2}Guest side of communication}{54}{subsection.4.2.2}}
\newlabel{Guestcomm}{{4.2.2}{54}{Guest side of communication}{subsection.4.2.2}{}}
\@writefile{toc}{\contentsline {subsection}{\numberline {4.2.3}Protocol}{54}{subsection.4.2.3}}
\newlabel{protocol}{{4.2.3}{54}{Protocol}{subsection.4.2.3}{}}
\@writefile{toc}{\contentsline {section}{\numberline {4.3}Guest driver}{55}{section.4.3}}
\newlabel{GuestKernelDriver}{{4.3}{55}{Guest driver}{section.4.3}{}}
\newlabel{impl:fileops}{{4.3}{56}{}{lstlisting.4.-13}{}}
\@writefile{toc}{\contentsline {subsection}{\numberline {4.3.1}Device initialization}{56}{subsection.4.3.1}}
\@writefile{toc}{\contentsline {subsection}{\numberline {4.3.2}Handling SISCI API requests}{56}{subsection.4.3.2}}
\newlabel{vdevioctlsign}{{4.3.2}{57}{}{lstlisting.4.-14}{}}
\@writefile{toc}{\contentsline {subsection}{\numberline {4.3.3}Mapping device memory into a SISCI application}{57}{subsection.4.3.3}}
\newlabel{GuestMapping}{{4.3.3}{57}{Mapping device memory into a SISCI application}{subsection.4.3.3}{}}
\newlabel{code:guest_ioctl_ex}{{4.10}{58}{Handling an ioctl from the API requesting creation of a new segment}{lstlisting.4.10}{}}
\@writefile{lol}{\contentsline {lstlisting}{\numberline {4.10}Handling an ioctl from the API requesting creation of a new segment.}{58}{lstlisting.4.10}}
\newlabel{vdevmmap}{{4.3.3}{58}{}{lstlisting.4.-15}{}}
\@writefile{lof}{\contentsline {figure}{\numberline {4.3}{\ignorespaces Overview of how segment memory is mapped into SISCI applications}}{59}{figure.4.3}}
\newlabel{figure:SCIMap}{{4.3}{59}{Overview of how segment memory is mapped into SISCI applications}{figure.4.3}{}}
\newlabel{vm_iomap_memory}{{4.3.3}{59}{}{lstlisting.4.-16}{}}
\@writefile{toc}{\contentsline {subsection}{\numberline {4.3.4}Interrupt handling in the guest}{60}{subsection.4.3.4}}
\newlabel{GuestInterrupts}{{4.3.4}{60}{Interrupt handling in the guest}{subsection.4.3.4}{}}
\newlabel{request_irq}{{4.3.4}{60}{}{lstlisting.4.-17}{}}
\newlabel{wait_event}{{4.3.4}{60}{}{lstlisting.4.-18}{}}
\@writefile{toc}{\contentsline {subsection}{\numberline {4.3.5}Managing SISCI descriptors and resources in the guest}{61}{subsection.4.3.5}}
\newlabel{GuestMinors}{{4.3.5}{61}{Managing SISCI descriptors and resources in the guest}{subsection.4.3.5}{}}
\@writefile{toc}{\contentsline {section}{\numberline {4.4}Modified SISCI API}{61}{section.4.4}}
\newlabel{ModSISCIAPI}{{4.4}{61}{Modified SISCI API}{section.4.4}{}}
\newlabel{code:minor_t}{{4.11}{62}{Guest driver structure for handling minor devices and associated resources}{lstlisting.4.11}{}}
\@writefile{lol}{\contentsline {lstlisting}{\numberline {4.11}Guest driver structure for handling minor devices and associated resources}{62}{lstlisting.4.11}}
\newlabel{code:mod_sisci_api}{{4.12}{64}{Illustration of how the SISCI API has been modified in the guest}{lstlisting.4.12}{}}
\@writefile{lol}{\contentsline {lstlisting}{\numberline {4.12}Illustration of how the SISCI API has been modified in the guest}{64}{lstlisting.4.12}}
\@writefile{toc}{\contentsline {section}{\numberline {4.5}Summary}{64}{section.4.5}}
\@setckpt{implementation}{
\setcounter{page}{65}
\setcounter{equation}{0}
\setcounter{enumi}{0}
\setcounter{enumii}{0}
\setcounter{enumiii}{0}
\setcounter{enumiv}{0}
\setcounter{footnote}{8}
\setcounter{mpfootnote}{0}
\setcounter{part}{0}
\setcounter{chapter}{4}
\setcounter{section}{5}
\setcounter{subsection}{0}
\setcounter{subsubsection}{0}
\setcounter{paragraph}{0}
\setcounter{subparagraph}{0}
\setcounter{figure}{3}
\setcounter{table}{0}
\setcounter{LT@tables}{0}
\setcounter{LT@chunks}{0}
\setcounter{parentequation}{0}
\setcounter{subfigure}{0}
\setcounter{lofdepth}{1}
\setcounter{subtable}{0}
\setcounter{lotdepth}{1}
\setcounter{Item}{0}
\setcounter{Hfootnote}{19}
\setcounter{bookmark@seq@number}{64}
\setcounter{lstnumber}{34}
\setcounter{IfiF@cur@year}{2017}
\setcounter{IfiF@cur@month}{2}
\setcounter{section@level}{1}
\setcounter{lstlisting}{12}
}
