\relax 
\citation{MAG2014}
\citation{MAG2016}
\@writefile{toc}{\contentsline {chapter}{\numberline {1}Introduction}{1}}
\@writefile{lof}{\addvspace {10\p@ }}
\@writefile{lot}{\addvspace {10\p@ }}
\newlabel{chap:intro}{{1}{1}}
\@writefile{toc}{\contentsline {section}{\numberline {1.1}Background and motivation}{1}}
\newlabel{sect:background}{{1.1}{1}}
\citation{XENSOCKET}
\@writefile{toc}{\contentsline {section}{\numberline {1.2}Problem Definition / Statement}{2}}
\newlabel{sect:prob-statement}{{1.2}{2}}
\@writefile{toc}{\contentsline {section}{\numberline {1.3}Limitations}{3}}
\newlabel{sect:limitations}{{1.3}{3}}
\@writefile{toc}{\contentsline {section}{\numberline {1.4}Research Method}{3}}
\newlabel{sect:method}{{1.4}{3}}
\@writefile{toc}{\contentsline {section}{\numberline {1.5}Main Contributions}{3}}
\newlabel{sect:contributions}{{1.5}{3}}
\@writefile{toc}{\contentsline {section}{\numberline {1.6}Outline}{3}}
\newlabel{sect:outline}{{1.6}{3}}
\@setckpt{intro}{
\setcounter{page}{4}
\setcounter{equation}{0}
\setcounter{enumi}{0}
\setcounter{enumii}{0}
\setcounter{enumiii}{0}
\setcounter{enumiv}{0}
\setcounter{footnote}{0}
\setcounter{mpfootnote}{0}
\setcounter{part}{0}
\setcounter{chapter}{1}
\setcounter{section}{6}
\setcounter{subsection}{0}
\setcounter{subsubsection}{0}
\setcounter{paragraph}{0}
\setcounter{subparagraph}{0}
\setcounter{figure}{0}
\setcounter{table}{0}
\setcounter{LT@tables}{0}
\setcounter{LT@chunks}{0}
\setcounter{parentequation}{0}
\setcounter{subfigure}{0}
\setcounter{lofdepth}{1}
\setcounter{subtable}{0}
\setcounter{lotdepth}{1}
\setcounter{lstnumber}{1}
\setcounter{IfiF@cur@year}{2017}
\setcounter{IfiF@cur@month}{1}
\setcounter{lstlisting}{0}
}
