\relax 
\providecommand\hyper@newdestlabel[2]{}
\citation{MAG2014}
\citation{MAG2016}
\citation{XENSOCKET}
\@writefile{toc}{\contentsline {chapter}{\numberline {1}Introduction}{1}{chapter.1}}
\@writefile{lof}{\addvspace {10\p@ }}
\@writefile{lot}{\addvspace {10\p@ }}
\newlabel{chap:intro}{{1}{1}{Introduction}{chapter.1}{}}
\@writefile{toc}{\contentsline {section}{\numberline {1.1}Background and motivation}{1}{section.1.1}}
\newlabel{sect:background}{{1.1}{1}{Background and motivation}{section.1.1}{}}
\citation{YiRen}
\@writefile{toc}{\contentsline {section}{\numberline {1.2}Problem Definition}{2}{section.1.2}}
\newlabel{sect:prob-statement}{{1.2}{2}{Problem Definition}{section.1.2}{}}
\citation{ACMCLASS}
\@writefile{toc}{\contentsline {section}{\numberline {1.3}Limitations}{3}{section.1.3}}
\newlabel{sect:limitations}{{1.3}{3}{Limitations}{section.1.3}{}}
\@writefile{toc}{\contentsline {section}{\numberline {1.4}Research Method}{3}{section.1.4}}
\newlabel{sect:method}{{1.4}{3}{Research Method}{section.1.4}{}}
\@writefile{toc}{\contentsline {section}{\numberline {1.5}Main Contributions}{3}{section.1.5}}
\newlabel{sect:contributions}{{1.5}{3}{Main Contributions}{section.1.5}{}}
\@writefile{toc}{\contentsline {section}{\numberline {1.6}Outline}{4}{section.1.6}}
\newlabel{sect:outline}{{1.6}{4}{Outline}{section.1.6}{}}
\@setckpt{intro_old}{
\setcounter{page}{5}
\setcounter{equation}{0}
\setcounter{enumi}{0}
\setcounter{enumii}{0}
\setcounter{enumiii}{0}
\setcounter{enumiv}{0}
\setcounter{footnote}{2}
\setcounter{mpfootnote}{0}
\setcounter{part}{0}
\setcounter{chapter}{1}
\setcounter{section}{6}
\setcounter{subsection}{0}
\setcounter{subsubsection}{0}
\setcounter{paragraph}{0}
\setcounter{subparagraph}{0}
\setcounter{figure}{0}
\setcounter{table}{0}
\setcounter{LT@tables}{0}
\setcounter{LT@chunks}{0}
\setcounter{parentequation}{0}
\setcounter{subfigure}{0}
\setcounter{lofdepth}{1}
\setcounter{subtable}{0}
\setcounter{lotdepth}{1}
\setcounter{Item}{0}
\setcounter{Hfootnote}{2}
\setcounter{bookmark@seq@number}{7}
\setcounter{lstnumber}{1}
\setcounter{IfiF@cur@year}{2017}
\setcounter{IfiF@cur@month}{2}
\setcounter{section@level}{1}
\setcounter{lstlisting}{0}
}
