\relax 
\providecommand\hyper@newdestlabel[2]{}
\providecommand\HyperFirstAtBeginDocument{\AtBeginDocument}
\HyperFirstAtBeginDocument{\ifx\hyper@anchor\@undefined
\global\let\oldcontentsline\contentsline
\gdef\contentsline#1#2#3#4{\oldcontentsline{#1}{#2}{#3}}
\global\let\oldnewlabel\newlabel
\gdef\newlabel#1#2{\newlabelxx{#1}#2}
\gdef\newlabelxx#1#2#3#4#5#6{\oldnewlabel{#1}{{#2}{#3}}}
\AtEndDocument{\ifx\hyper@anchor\@undefined
\let\contentsline\oldcontentsline
\let\newlabel\oldnewlabel
\fi}
\fi}
\global\let\hyper@last\relax 
\gdef\HyperFirstAtBeginDocument#1{#1}
\providecommand\HyField@AuxAddToFields[1]{}
\providecommand\HyField@AuxAddToCoFields[2]{}
\select@language{english}
\@writefile{toc}{\select@language{english}}
\@writefile{lof}{\select@language{english}}
\@writefile{lot}{\select@language{english}}
\citation{vmware_figs}
\citation{vmware_figs}
\citation{vmware_figs}
\citation{INTEL_MAN}
\citation{pci_wiki}
\@input{intro_old.aux}
\@input{background.aux}
\@input{design.aux}
\@input{implementation.aux}
\@input{eval.aux}
\@input{concl.aux}
\@input{appA.aux}
\bibstyle{unsrt}
\bibdata{all}
\bibcite{vmware_figs}{1}
\bibcite{INTEL_MAN}{2}
\bibcite{pci_wiki}{3}
\bibcite{MAG2014}{4}
\bibcite{MAG2016}{5}
\bibcite{XENSOCKET}{6}
\bibcite{YiRen}{7}
\bibcite{ACMCLASS}{8}
\bibcite{KVM-2007}{9}
\bibcite{STAR-WP}{10}
\bibcite{TAN-2014}{11}
\bibcite{DEN}{12}
\bibcite{Xen-2003}{13}
\bibcite{virtio-2010}{14}
\bibcite{Qemu-2005}{15}
\bibcite{SISCI}{16}
\bibcite{XWAY}{17}
\bibcite{VMPI}{18}
\bibcite{IVShmem}{19}
\bibcite{MemPipe}{20}
\bibcite{SIVSHM}{21}
\bibcite{host-guest}{22}
\bibcite{QCKX-2008}{23}
\bibcite{MAYO-CLIN}{24}
\bibcite{CDG-TH}{25}
\bibcite{GPU-PASS}{26}
\bibcite{Qemu_mem_api}{27}
\bibcite{Drepper}{28}
\bibcite{INTEL_MAN2}{29}
\bibcite{INTEL_PPT}{30}
