\relax 
\@writefile{toc}{\contentsline {chapter}{\numberline {4}Related work}{13}}
\@writefile{lof}{\addvspace {10\p@ }}
\@writefile{lot}{\addvspace {10\p@ }}
\newlabel{chap:relatedw}{{4}{13}}
\@writefile{toc}{\contentsline {section}{\numberline {4.1}Nahanni (ivshmem)}{13}}
\@writefile{toc}{\contentsline {section}{\numberline {4.2}XWAY}{13}}
\@writefile{toc}{\contentsline {section}{\numberline {4.3}VirtIO}{13}}
\@writefile{toc}{\contentsline {section}{\numberline {4.4}Short title (Efficient shared memory message passing for inter-VM communications)}{13}}
\@writefile{toc}{\contentsline {section}{\numberline {4.5}(XenSocket)}{13}}
\@writefile{toc}{\contentsline {section}{\numberline {4.6}XenLoop}{13}}
\@writefile{toc}{\contentsline {section}{\numberline {4.7}ZIVM}{13}}
\@writefile{toc}{\contentsline {section}{\numberline {4.8}Comparative study of inter-VM communication solutions}{13}}
\@setckpt{relatedw}{
\setcounter{page}{14}
\setcounter{equation}{0}
\setcounter{enumi}{0}
\setcounter{enumii}{0}
\setcounter{enumiii}{0}
\setcounter{enumiv}{0}
\setcounter{footnote}{0}
\setcounter{mpfootnote}{0}
\setcounter{part}{0}
\setcounter{chapter}{4}
\setcounter{section}{8}
\setcounter{subsection}{0}
\setcounter{subsubsection}{0}
\setcounter{paragraph}{0}
\setcounter{subparagraph}{0}
\setcounter{figure}{0}
\setcounter{table}{0}
\setcounter{LT@tables}{0}
\setcounter{LT@chunks}{0}
\setcounter{parentequation}{0}
\setcounter{subfigure}{0}
\setcounter{lofdepth}{1}
\setcounter{subtable}{0}
\setcounter{lotdepth}{1}
\setcounter{IfiF@cur@year}{2016}
\setcounter{IfiF@cur@month}{9}
}
