\relax 
\@writefile{toc}{\contentsline {chapter}{\numberline {3}Technical background}{13}}
\@writefile{lof}{\addvspace {10\p@ }}
\@writefile{lot}{\addvspace {10\p@ }}
\newlabel{chap:techback}{{3}{13}}
\@writefile{toc}{\contentsline {section}{\numberline {3.1}Linux}{13}}
\@writefile{toc}{\contentsline {subsection}{\numberline {3.1.1}Memory management}{13}}
\@writefile{toc}{\contentsline {subsubsection}{Virtual Memory/Addressing}{13}}
\@writefile{toc}{\contentsline {subsubsection}{Paging}{13}}
\@writefile{toc}{\contentsline {subsubsection}{Page tables}{13}}
\@writefile{toc}{\contentsline {subsubsection}{Consequences for virtualization (already touched upon in VM chapter)}{14}}
\@writefile{toc}{\contentsline {subsubsection}{The Memory Management Unit (MMU)}{14}}
\@writefile{toc}{\contentsline {subsection}{\numberline {3.1.2}The Linux kernel}{14}}
\@writefile{toc}{\contentsline {subsection}{\numberline {3.1.3}Device drivers}{14}}
\@writefile{toc}{\contentsline {subsection}{\numberline {3.1.4}Inter Process Communcation}{14}}
\@writefile{toc}{\contentsline {section}{\numberline {3.2}PCI Express}{14}}
\@writefile{toc}{\contentsline {subsubsection}{Configuration space}{14}}
\@writefile{toc}{\contentsline {subsubsection}{BARs etc}{14}}
\@writefile{toc}{\contentsline {section}{\numberline {3.3}SISCI}{14}}
\@writefile{toc}{\contentsline {subsubsection}{Api and Dolphin solutions/driver}{14}}
\@writefile{toc}{\contentsline {section}{\numberline {3.4}Inter-process and Inter-VM communication (previously: related work)}{14}}
\newlabel{chap:relatedw}{{3.4}{14}}
\@writefile{toc}{\contentsline {subsubsection}{Infiniband}{14}}
\@writefile{toc}{\contentsline {subsubsection}{XWAY}{14}}
\@writefile{toc}{\contentsline {subsubsection}{Short title (Efficient shared memory message passing for inter-VM communications)}{14}}
\@writefile{toc}{\contentsline {subsubsection}{(XenSocket)}{14}}
\@writefile{toc}{\contentsline {subsubsection}{XenLoop}{14}}
\@writefile{toc}{\contentsline {subsubsection}{ZIVM}{14}}
\@writefile{toc}{\contentsline {subsubsection}{Comparative study of inter-VM communication solutions}{14}}
\@setckpt{techback}{
\setcounter{page}{15}
\setcounter{equation}{0}
\setcounter{enumi}{0}
\setcounter{enumii}{0}
\setcounter{enumiii}{0}
\setcounter{enumiv}{0}
\setcounter{footnote}{0}
\setcounter{mpfootnote}{0}
\setcounter{part}{0}
\setcounter{chapter}{3}
\setcounter{section}{4}
\setcounter{subsection}{0}
\setcounter{subsubsection}{0}
\setcounter{paragraph}{0}
\setcounter{subparagraph}{0}
\setcounter{figure}{0}
\setcounter{table}{0}
\setcounter{LT@tables}{0}
\setcounter{LT@chunks}{0}
\setcounter{parentequation}{0}
\setcounter{subfigure}{0}
\setcounter{lofdepth}{1}
\setcounter{subtable}{0}
\setcounter{lotdepth}{1}
\setcounter{IfiF@cur@year}{2016}
\setcounter{IfiF@cur@month}{10}
}
