\relax 
\@writefile{toc}{\contentsline {chapter}{\numberline {2}Virtualization/Virtual Machines}{5}}
\@writefile{lof}{\addvspace {10\p@ }}
\@writefile{lot}{\addvspace {10\p@ }}
\newlabel{chap:vm}{{2}{5}}
\@writefile{toc}{\contentsline {section}{\numberline {2.1}Motivation/Advantages}{5}}
\citation{KVM-2007}
\citation{STAR-WP}
\@writefile{toc}{\contentsline {section}{\numberline {2.2}Virtualization components}{6}}
\@writefile{toc}{\contentsline {section}{\numberline {2.3}Virtualization techniques}{6}}
\@writefile{toc}{\contentsline {subsection}{\numberline {2.3.1}Full virtualization}{6}}
\newlabel{subsect:FV}{{2.3.1}{6}}
\@writefile{toc}{\contentsline {subsubsection}{CPU virtualization}{6}}
\citation{TAN-2014}
\@writefile{toc}{\contentsline {subsubsection}{Memory management}{7}}
\@writefile{toc}{\contentsline {subsubsection}{I/O virtualization}{7}}
\citation{KVM-2007}
\citation{DEN}
\citation{Xen-2003}
\citation{virtio-2010}
\@writefile{toc}{\contentsline {subsection}{\numberline {2.3.2}Hardware-assisted virtualization}{8}}
\newlabel{subsect:HVM}{{2.3.2}{8}}
\@writefile{toc}{\contentsline {subsection}{\numberline {2.3.3}Paravirtualization}{8}}
\@writefile{toc}{\contentsline {section}{\numberline {2.4}I/O virtualization}{8}}
\citation{Xen-2003}
\citation{Xen-2003}
\@writefile{toc}{\contentsline {section}{\numberline {2.5}Current virtualization solutions}{9}}
\newlabel{sect:CVS }{{2.5}{9}}
\@writefile{toc}{\contentsline {subsection}{\numberline {2.5.1}The Xen Project}{9}}
\@writefile{toc}{\contentsline {subsubsection}{Components}{9}}
\citation{Xen-2003}
\citation{Qemu-2005}
\citation{KVM-2007}
\citation{KVM-2007}
\citation{KVM-2007}
\@writefile{toc}{\contentsline {subsubsection}{Support}{10}}
\@writefile{toc}{\contentsline {subsection}{\numberline {2.5.2}Kernel-based Virtual Machine (and Qemu?)}{10}}
\newlabel{subsect:KVM}{{2.5.2}{10}}
\citation{KVM-2007}
\citation{KVM-2007}
\citation{virtio-2010}
\@writefile{toc}{\contentsline {subsubsection}{Components}{11}}
\@writefile{toc}{\contentsline {subsubsection}{Paravirtualized I/O}{11}}
\@writefile{toc}{\contentsline {section}{\numberline {2.6}Summary}{11}}
\@setckpt{vm}{
\setcounter{page}{12}
\setcounter{equation}{0}
\setcounter{enumi}{0}
\setcounter{enumii}{0}
\setcounter{enumiii}{0}
\setcounter{enumiv}{0}
\setcounter{footnote}{9}
\setcounter{mpfootnote}{0}
\setcounter{part}{0}
\setcounter{chapter}{2}
\setcounter{section}{6}
\setcounter{subsection}{0}
\setcounter{subsubsection}{0}
\setcounter{paragraph}{0}
\setcounter{subparagraph}{0}
\setcounter{figure}{0}
\setcounter{table}{0}
\setcounter{LT@tables}{0}
\setcounter{LT@chunks}{0}
\setcounter{parentequation}{0}
\setcounter{subfigure}{0}
\setcounter{lofdepth}{1}
\setcounter{subtable}{0}
\setcounter{lotdepth}{1}
\setcounter{IfiF@cur@year}{2016}
\setcounter{IfiF@cur@month}{9}
}
